#! /usr/bin/vvp
:ivl_version "10.3 (stable)";
:ivl_delay_selection "TYPICAL";
:vpi_time_precision + 0;
:vpi_module "system";
:vpi_module "vhdl_sys";
:vpi_module "v2005_math";
:vpi_module "va_math";
S_0x563e30e02b70 .scope module, "BancoPrueba" "BancoPrueba" 2 15;
 .timescale 0 0;
v0x563e30e96d60_0 .net "clk", 0 0, v0x563e30e5dee0_0;  1 drivers
v0x563e30e96e20_0 .net "data_in0", 9 0, v0x563e30e96430_0;  1 drivers
v0x563e30e96ee0_0 .net "data_in1", 9 0, v0x563e30e96540_0;  1 drivers
v0x563e30e96f80_0 .net "data_out0", 7 0, v0x563e30e8bd90_0;  1 drivers
v0x563e30e970d0_0 .net "data_out1", 7 0, v0x563e30e90be0_0;  1 drivers
v0x563e30e97220_0 .net "empty_TH", 3 0, v0x563e30e96800_0;  1 drivers
v0x563e30e972e0_0 .net "empty_alert0", 0 0, v0x563e30e8ac60_0;  1 drivers
v0x563e30e97380_0 .net "empty_alert1", 0 0, v0x563e30e8f940_0;  1 drivers
v0x563e30e97420_0 .net "errorEmpty0", 0 0, v0x563e30e8ae50_0;  1 drivers
v0x563e30e97550_0 .net "errorEmpty1", 0 0, v0x563e30e8fb60_0;  1 drivers
v0x563e30e975f0_0 .net "errorFull0", 0 0, v0x563e30e8af10_0;  1 drivers
v0x563e30e97690_0 .net "errorFull1", 0 0, v0x563e30e8fc20_0;  1 drivers
v0x563e30e97730_0 .net "full_TH", 3 0, v0x563e30e968c0_0;  1 drivers
v0x563e30e977f0_0 .net "full_alert0", 0 0, v0x563e30e8b090_0;  1 drivers
v0x563e30e97890_0 .net "full_alert1", 0 0, v0x563e30e8fda0_0;  1 drivers
v0x563e30e97930_0 .net "read", 0 0, v0x563e30e96980_0;  1 drivers
v0x563e30e97ae0_0 .net "reset", 0 0, v0x563e30e96a20_0;  1 drivers
v0x563e30e97c90_0 .net "selectorautomatico", 0 0, v0x563e30e96ac0_0;  1 drivers
v0x563e30e97d30_0 .net "write", 0 0, v0x563e30e96b60_0;  1 drivers
S_0x563e30e032d0 .scope module, "er1" "enrutamiento" 2 39, 3 10 0, S_0x563e30e02b70;
 .timescale 0 0;
    .port_info 0 /INPUT 10 "data_in0"
    .port_info 1 /INPUT 10 "data_in1"
    .port_info 2 /OUTPUT 8 "data_out0"
    .port_info 3 /OUTPUT 8 "data_out1"
    .port_info 4 /INPUT 1 "write"
    .port_info 5 /INPUT 1 "read"
    .port_info 6 /INPUT 4 "full_TH"
    .port_info 7 /INPUT 4 "empty_TH"
    .port_info 8 /INPUT 1 "clk"
    .port_info 9 /INPUT 1 "reset"
    .port_info 10 /INPUT 1 "selectorautomatico"
    .port_info 11 /OUTPUT 1 "errorFull0"
    .port_info 12 /OUTPUT 1 "errorEmpty0"
    .port_info 13 /OUTPUT 1 "empty_alert0"
    .port_info 14 /OUTPUT 1 "full_alert0"
    .port_info 15 /OUTPUT 1 "errorFull1"
    .port_info 16 /OUTPUT 1 "errorEmpty1"
    .port_info 17 /OUTPUT 1 "empty_alert1"
    .port_info 18 /OUTPUT 1 "full_alert1"
v0x563e30e94a70_0 .net "clk", 0 0, v0x563e30e5dee0_0;  alias, 1 drivers
v0x563e30e94b30_0 .net "data_in0", 9 0, v0x563e30e96430_0;  alias, 1 drivers
v0x563e30e94bf0_0 .net "data_in1", 9 0, v0x563e30e96540_0;  alias, 1 drivers
v0x563e30e94c90_0 .net "data_out0", 7 0, v0x563e30e8bd90_0;  alias, 1 drivers
v0x563e30e94d30_0 .net "data_out1", 7 0, v0x563e30e90be0_0;  alias, 1 drivers
v0x563e30e94e70_0 .net "data_outmux", 9 0, v0x563e30e943c0_0;  1 drivers
v0x563e30e94f30_0 .net "empty_TH", 3 0, v0x563e30e96800_0;  alias, 1 drivers
v0x563e30e95060_0 .net "empty_alert0", 0 0, v0x563e30e8ac60_0;  alias, 1 drivers
v0x563e30e95100_0 .net "empty_alert1", 0 0, v0x563e30e8f940_0;  alias, 1 drivers
v0x563e30e95230_0 .net "errorEmpty0", 0 0, v0x563e30e8ae50_0;  alias, 1 drivers
v0x563e30e95320_0 .net "errorEmpty1", 0 0, v0x563e30e8fb60_0;  alias, 1 drivers
v0x563e30e95410_0 .net "errorFull0", 0 0, v0x563e30e8af10_0;  alias, 1 drivers
v0x563e30e95500_0 .net "errorFull1", 0 0, v0x563e30e8fc20_0;  alias, 1 drivers
v0x563e30e955f0_0 .net "full_TH", 3 0, v0x563e30e968c0_0;  alias, 1 drivers
v0x563e30e95740_0 .net "full_alert0", 0 0, v0x563e30e8b090_0;  alias, 1 drivers
v0x563e30e957e0_0 .net "full_alert1", 0 0, v0x563e30e8fda0_0;  alias, 1 drivers
v0x563e30e958d0_0 .net "read", 0 0, v0x563e30e96980_0;  alias, 1 drivers
v0x563e30e95970_0 .net "reset", 0 0, v0x563e30e96a20_0;  alias, 1 drivers
v0x563e30e95c20_0 .net "salidaDemux0", 7 0, v0x563e30e5bbf0_0;  1 drivers
v0x563e30e95ce0_0 .net "salidaDemux1", 7 0, v0x563e30e62470_0;  1 drivers
v0x563e30e95da0_0 .net "selectorautomatico", 0 0, v0x563e30e96ac0_0;  alias, 1 drivers
v0x563e30e95e40_0 .net "valid_out", 0 0, v0x563e30e947d0_0;  1 drivers
v0x563e30e95ee0_0 .net "write", 0 0, v0x563e30e96b60_0;  alias, 1 drivers
L_0x563e30e97ee0 .part v0x563e30e943c0_0, 2, 8;
L_0x563e30e97f80 .part v0x563e30e943c0_0, 1, 1;
S_0x563e30e15810 .scope module, "demux_1" "demux_conductual" 3 49, 4 1 0, S_0x563e30e032d0;
 .timescale 0 0;
    .port_info 0 /INPUT 1 "clk"
    .port_info 1 /INPUT 8 "data_in"
    .port_info 2 /INPUT 1 "selector"
    .port_info 3 /INPUT 1 "reset"
    .port_info 4 /OUTPUT 8 "data_out0"
    .port_info 5 /OUTPUT 8 "data_out1"
v0x563e30e5cde0_0 .net "clk", 0 0, v0x563e30e5dee0_0;  alias, 1 drivers
v0x563e30e5eeb0_0 .net "data_in", 7 0, L_0x563e30e97ee0;  1 drivers
v0x563e30e5bbf0_0 .var "data_out0", 7 0;
v0x563e30e62470_0 .var "data_out1", 7 0;
v0x563e30e3a2f0_0 .var "data_outtemp0", 7 0;
v0x563e30e8a100_0 .var "data_outtemp1", 7 0;
v0x563e30e8a1e0_0 .net "reset", 0 0, v0x563e30e96a20_0;  alias, 1 drivers
v0x563e30e8a2a0_0 .net "selector", 0 0, L_0x563e30e97f80;  1 drivers
E_0x563e30e4b7b0 .event edge, v0x563e30e8a2a0_0, v0x563e30e5eeb0_0, v0x563e30e62470_0, v0x563e30e5bbf0_0;
E_0x563e30e4b640 .event posedge, v0x563e30e5cde0_0;
S_0x563e30e8a420 .scope module, "fifo0" "fifo_6x8" 3 58, 5 1 0, S_0x563e30e032d0;
 .timescale 0 0;
    .port_info 0 /OUTPUT 8 "read_data_cond"
    .port_info 1 /OUTPUT 1 "errorFull"
    .port_info 2 /OUTPUT 1 "errorEmpty"
    .port_info 3 /OUTPUT 1 "empty_alert"
    .port_info 4 /OUTPUT 1 "full_alert"
    .port_info 5 /INPUT 1 "write"
    .port_info 6 /INPUT 1 "read"
    .port_info 7 /INPUT 8 "write_data"
    .port_info 8 /INPUT 4 "full_TH"
    .port_info 9 /INPUT 4 "empty_TH"
    .port_info 10 /INPUT 1 "clk"
    .port_info 11 /INPUT 1 "reset_L"
v0x563e30e8dc30_0 .net "clk", 0 0, v0x563e30e5dee0_0;  alias, 1 drivers
v0x563e30e8dcf0_0 .net "empty", 0 0, v0x563e30e8abc0_0;  1 drivers
v0x563e30e8de00_0 .net "empty_TH", 3 0, v0x563e30e96800_0;  alias, 1 drivers
v0x563e30e8ded0_0 .net "empty_alert", 0 0, v0x563e30e8ac60_0;  alias, 1 drivers
v0x563e30e8dfa0_0 .net "errorEmpty", 0 0, v0x563e30e8ae50_0;  alias, 1 drivers
v0x563e30e8e090_0 .net "errorFull", 0 0, v0x563e30e8af10_0;  alias, 1 drivers
v0x563e30e8e160_0 .net "full", 0 0, v0x563e30e8afd0_0;  1 drivers
v0x563e30e8e250_0 .net "full_TH", 3 0, v0x563e30e968c0_0;  alias, 1 drivers
v0x563e30e8e2f0_0 .net "full_alert", 0 0, v0x563e30e8b090_0;  alias, 1 drivers
v0x563e30e8e450_0 .net "pop", 0 0, v0x563e30e8cb90_0;  1 drivers
v0x563e30e8e4f0_0 .net "push", 0 0, v0x563e30e8d8b0_0;  1 drivers
v0x563e30e8e5e0_0 .net "r_d", 3 0, v0x563e30e8c4d0_0;  1 drivers
v0x563e30e8e6d0_0 .net "rd_dir", 3 0, v0x563e30e8cc60_0;  1 drivers
v0x563e30e8e7c0_0 .net "read", 0 0, v0x563e30e96980_0;  alias, 1 drivers
v0x563e30e8e8b0_0 .net "read_data_cond", 7 0, v0x563e30e8bd90_0;  alias, 1 drivers
v0x563e30e8e950_0 .net "reset_L", 0 0, v0x563e30e96a20_0;  alias, 1 drivers
v0x563e30e8e9f0_0 .net "w_d", 3 0, v0x563e30e8d1f0_0;  1 drivers
v0x563e30e8eae0_0 .net "wr_dir", 3 0, v0x563e30e8da50_0;  1 drivers
v0x563e30e8ebd0_0 .net "write", 0 0, v0x563e30e96b60_0;  alias, 1 drivers
v0x563e30e8ecc0_0 .net "write_data", 7 0, v0x563e30e5bbf0_0;  alias, 1 drivers
S_0x563e30e8a740 .scope module, "flow_ctrl" "flowControl" 5 67, 6 1 0, S_0x563e30e8a420;
 .timescale 0 0;
    .port_info 0 /OUTPUT 1 "errorFull"
    .port_info 1 /OUTPUT 1 "errorEmpty"
    .port_info 2 /OUTPUT 1 "empty_alert"
    .port_info 3 /OUTPUT 1 "full_alert"
    .port_info 4 /OUTPUT 1 "full"
    .port_info 5 /OUTPUT 1 "empty"
    .port_info 6 /INPUT 4 "full_th"
    .port_info 7 /INPUT 4 "empty_th"
    .port_info 8 /INPUT 1 "read"
    .port_info 9 /INPUT 1 "write"
    .port_info 10 /INPUT 1 "clk"
    .port_info 11 /INPUT 1 "reset_L"
v0x563e30e8aa40_0 .net "clk", 0 0, v0x563e30e5dee0_0;  alias, 1 drivers
v0x563e30e8ab00_0 .var "data_count", 3 0;
v0x563e30e8abc0_0 .var "empty", 0 0;
v0x563e30e8ac60_0 .var "empty_alert", 0 0;
v0x563e30e8ad20_0 .net "empty_th", 3 0, v0x563e30e96800_0;  alias, 1 drivers
v0x563e30e8ae50_0 .var "errorEmpty", 0 0;
v0x563e30e8af10_0 .var "errorFull", 0 0;
v0x563e30e8afd0_0 .var "full", 0 0;
v0x563e30e8b090_0 .var "full_alert", 0 0;
v0x563e30e8b150_0 .net "full_th", 3 0, v0x563e30e968c0_0;  alias, 1 drivers
v0x563e30e8b230_0 .net "read", 0 0, v0x563e30e96980_0;  alias, 1 drivers
v0x563e30e8b2f0_0 .net "reset_L", 0 0, v0x563e30e96a20_0;  alias, 1 drivers
v0x563e30e8b390_0 .net "write", 0 0, v0x563e30e96b60_0;  alias, 1 drivers
S_0x563e30e8b5b0 .scope module, "memory" "memoria_cond" 5 19, 7 1 0, S_0x563e30e8a420;
 .timescale 0 0;
    .port_info 0 /OUTPUT 8 "read_data_cond"
    .port_info 1 /INPUT 4 "rd_dir"
    .port_info 2 /INPUT 4 "wr_dir"
    .port_info 3 /INPUT 8 "write_data"
    .port_info 4 /INPUT 1 "memread"
    .port_info 5 /INPUT 1 "memwrite"
    .port_info 6 /INPUT 1 "clk"
    .port_info 7 /INPUT 1 "reset_L"
v0x563e30e8b870 .array "MEMORY", 0 5, 7 0;
v0x563e30e8b930_0 .net "clk", 0 0, v0x563e30e5dee0_0;  alias, 1 drivers
v0x563e30e8ba40_0 .var/i "i", 31 0;
v0x563e30e8bae0_0 .net "memread", 0 0, v0x563e30e8cb90_0;  alias, 1 drivers
v0x563e30e8bba0_0 .net "memwrite", 0 0, v0x563e30e8d8b0_0;  alias, 1 drivers
v0x563e30e8bcb0_0 .net "rd_dir", 3 0, v0x563e30e8c4d0_0;  alias, 1 drivers
v0x563e30e8bd90_0 .var "read_data_cond", 7 0;
v0x563e30e8be70_0 .net "reset_L", 0 0, v0x563e30e96a20_0;  alias, 1 drivers
v0x563e30e8bf60_0 .net "wr_dir", 3 0, v0x563e30e8d1f0_0;  alias, 1 drivers
v0x563e30e8c0d0_0 .net "write_data", 7 0, v0x563e30e5bbf0_0;  alias, 1 drivers
S_0x563e30e8c270 .scope module, "read_dir_ff" "flipflop3b" 5 59, 8 1 0, S_0x563e30e8a420;
 .timescale 0 0;
    .port_info 0 /OUTPUT 4 "Q"
    .port_info 1 /INPUT 4 "D"
    .port_info 2 /INPUT 1 "clk"
    .port_info 3 /INPUT 1 "reset_L"
v0x563e30e8c3f0_0 .net "D", 3 0, v0x563e30e8cc60_0;  alias, 1 drivers
v0x563e30e8c4d0_0 .var "Q", 3 0;
v0x563e30e8c590_0 .net "clk", 0 0, v0x563e30e5dee0_0;  alias, 1 drivers
v0x563e30e8c630_0 .net "reset_L", 0 0, v0x563e30e96a20_0;  alias, 1 drivers
S_0x563e30e8c710 .scope module, "read_rq" "read_Req" 5 31, 9 1 0, S_0x563e30e8a420;
 .timescale 0 0;
    .port_info 0 /OUTPUT 4 "rd_dir"
    .port_info 1 /OUTPUT 1 "pop"
    .port_info 2 /INPUT 1 "read"
    .port_info 3 /INPUT 1 "empty"
    .port_info 4 /INPUT 1 "clk"
    .port_info 5 /INPUT 1 "reset_L"
v0x563e30e8c980_0 .net "clk", 0 0, v0x563e30e5dee0_0;  alias, 1 drivers
v0x563e30e8cad0_0 .net "empty", 0 0, v0x563e30e8abc0_0;  alias, 1 drivers
v0x563e30e8cb90_0 .var "pop", 0 0;
v0x563e30e8cc60_0 .var "rd_dir", 3 0;
v0x563e30e8cd30_0 .net "read", 0 0, v0x563e30e96980_0;  alias, 1 drivers
v0x563e30e8cdd0_0 .net "reset_L", 0 0, v0x563e30e96a20_0;  alias, 1 drivers
S_0x563e30e8cf20 .scope module, "write_dir_ff" "flipflop3b" 5 51, 8 1 0, S_0x563e30e8a420;
 .timescale 0 0;
    .port_info 0 /OUTPUT 4 "Q"
    .port_info 1 /INPUT 4 "D"
    .port_info 2 /INPUT 1 "clk"
    .port_info 3 /INPUT 1 "reset_L"
v0x563e30e8d0f0_0 .net "D", 3 0, v0x563e30e8da50_0;  alias, 1 drivers
v0x563e30e8d1f0_0 .var "Q", 3 0;
v0x563e30e8d2e0_0 .net "clk", 0 0, v0x563e30e5dee0_0;  alias, 1 drivers
v0x563e30e8d3b0_0 .net "reset_L", 0 0, v0x563e30e96a20_0;  alias, 1 drivers
S_0x563e30e8d4c0 .scope module, "write_rq" "write_Req" 5 41, 10 1 0, S_0x563e30e8a420;
 .timescale 0 0;
    .port_info 0 /OUTPUT 4 "wr_dir"
    .port_info 1 /OUTPUT 1 "push"
    .port_info 2 /INPUT 1 "write"
    .port_info 3 /INPUT 1 "full"
    .port_info 4 /INPUT 1 "clk"
    .port_info 5 /INPUT 1 "reset_L"
v0x563e30e8d730_0 .net "clk", 0 0, v0x563e30e5dee0_0;  alias, 1 drivers
v0x563e30e8d7f0_0 .net "full", 0 0, v0x563e30e8afd0_0;  alias, 1 drivers
v0x563e30e8d8b0_0 .var "push", 0 0;
v0x563e30e8d9b0_0 .net "reset_L", 0 0, v0x563e30e96a20_0;  alias, 1 drivers
v0x563e30e8da50_0 .var "wr_dir", 3 0;
v0x563e30e8db40_0 .net "write", 0 0, v0x563e30e96b60_0;  alias, 1 drivers
S_0x563e30e8ef80 .scope module, "fifo1" "fifo_6x8" 3 75, 5 1 0, S_0x563e30e032d0;
 .timescale 0 0;
    .port_info 0 /OUTPUT 8 "read_data_cond"
    .port_info 1 /OUTPUT 1 "errorFull"
    .port_info 2 /OUTPUT 1 "errorEmpty"
    .port_info 3 /OUTPUT 1 "empty_alert"
    .port_info 4 /OUTPUT 1 "full_alert"
    .port_info 5 /INPUT 1 "write"
    .port_info 6 /INPUT 1 "read"
    .port_info 7 /INPUT 8 "write_data"
    .port_info 8 /INPUT 4 "full_TH"
    .port_info 9 /INPUT 4 "empty_TH"
    .port_info 10 /INPUT 1 "clk"
    .port_info 11 /INPUT 1 "reset_L"
v0x563e30e929d0_0 .net "clk", 0 0, v0x563e30e5dee0_0;  alias, 1 drivers
v0x563e30e92a90_0 .net "empty", 0 0, v0x563e30e8f8a0_0;  1 drivers
v0x563e30e92b50_0 .net "empty_TH", 3 0, v0x563e30e96800_0;  alias, 1 drivers
v0x563e30e92bf0_0 .net "empty_alert", 0 0, v0x563e30e8f940_0;  alias, 1 drivers
v0x563e30e92cc0_0 .net "errorEmpty", 0 0, v0x563e30e8fb60_0;  alias, 1 drivers
v0x563e30e92db0_0 .net "errorFull", 0 0, v0x563e30e8fc20_0;  alias, 1 drivers
v0x563e30e92e80_0 .net "full", 0 0, v0x563e30e8fce0_0;  1 drivers
v0x563e30e92f70_0 .net "full_TH", 3 0, v0x563e30e968c0_0;  alias, 1 drivers
v0x563e30e93010_0 .net "full_alert", 0 0, v0x563e30e8fda0_0;  alias, 1 drivers
v0x563e30e93140_0 .net "pop", 0 0, v0x563e30e91870_0;  1 drivers
v0x563e30e931e0_0 .net "push", 0 0, v0x563e30e92590_0;  1 drivers
v0x563e30e932d0_0 .net "r_d", 3 0, v0x563e30e91240_0;  1 drivers
v0x563e30e933c0_0 .net "rd_dir", 3 0, v0x563e30e91910_0;  1 drivers
v0x563e30e934b0_0 .net "read", 0 0, v0x563e30e96980_0;  alias, 1 drivers
v0x563e30e93550_0 .net "read_data_cond", 7 0, v0x563e30e90be0_0;  alias, 1 drivers
v0x563e30e935f0_0 .net "reset_L", 0 0, v0x563e30e96a20_0;  alias, 1 drivers
v0x563e30e93690_0 .net "w_d", 3 0, v0x563e30e91f00_0;  1 drivers
v0x563e30e93890_0 .net "wr_dir", 3 0, v0x563e30e92730_0;  1 drivers
v0x563e30e93980_0 .net "write", 0 0, v0x563e30e96b60_0;  alias, 1 drivers
v0x563e30e93a20_0 .net "write_data", 7 0, v0x563e30e62470_0;  alias, 1 drivers
S_0x563e30e8f280 .scope module, "flow_ctrl" "flowControl" 5 67, 6 1 0, S_0x563e30e8ef80;
 .timescale 0 0;
    .port_info 0 /OUTPUT 1 "errorFull"
    .port_info 1 /OUTPUT 1 "errorEmpty"
    .port_info 2 /OUTPUT 1 "empty_alert"
    .port_info 3 /OUTPUT 1 "full_alert"
    .port_info 4 /OUTPUT 1 "full"
    .port_info 5 /OUTPUT 1 "empty"
    .port_info 6 /INPUT 4 "full_th"
    .port_info 7 /INPUT 4 "empty_th"
    .port_info 8 /INPUT 1 "read"
    .port_info 9 /INPUT 1 "write"
    .port_info 10 /INPUT 1 "clk"
    .port_info 11 /INPUT 1 "reset_L"
v0x563e30e8f5f0_0 .net "clk", 0 0, v0x563e30e5dee0_0;  alias, 1 drivers
v0x563e30e8f7c0_0 .var "data_count", 3 0;
v0x563e30e8f8a0_0 .var "empty", 0 0;
v0x563e30e8f940_0 .var "empty_alert", 0 0;
v0x563e30e8fa00_0 .net "empty_th", 3 0, v0x563e30e96800_0;  alias, 1 drivers
v0x563e30e8fb60_0 .var "errorEmpty", 0 0;
v0x563e30e8fc20_0 .var "errorFull", 0 0;
v0x563e30e8fce0_0 .var "full", 0 0;
v0x563e30e8fda0_0 .var "full_alert", 0 0;
v0x563e30e8fe60_0 .net "full_th", 3 0, v0x563e30e968c0_0;  alias, 1 drivers
v0x563e30e8ff20_0 .net "read", 0 0, v0x563e30e96980_0;  alias, 1 drivers
v0x563e30e8ffc0_0 .net "reset_L", 0 0, v0x563e30e96a20_0;  alias, 1 drivers
v0x563e30e90170_0 .net "write", 0 0, v0x563e30e96b60_0;  alias, 1 drivers
S_0x563e30e90400 .scope module, "memory" "memoria_cond" 5 19, 7 1 0, S_0x563e30e8ef80;
 .timescale 0 0;
    .port_info 0 /OUTPUT 8 "read_data_cond"
    .port_info 1 /INPUT 4 "rd_dir"
    .port_info 2 /INPUT 4 "wr_dir"
    .port_info 3 /INPUT 8 "write_data"
    .port_info 4 /INPUT 1 "memread"
    .port_info 5 /INPUT 1 "memwrite"
    .port_info 6 /INPUT 1 "clk"
    .port_info 7 /INPUT 1 "reset_L"
v0x563e30e90710 .array "MEMORY", 0 5, 7 0;
v0x563e30e907d0_0 .net "clk", 0 0, v0x563e30e5dee0_0;  alias, 1 drivers
v0x563e30e90890_0 .var/i "i", 31 0;
v0x563e30e90930_0 .net "memread", 0 0, v0x563e30e91870_0;  alias, 1 drivers
v0x563e30e909f0_0 .net "memwrite", 0 0, v0x563e30e92590_0;  alias, 1 drivers
v0x563e30e90b00_0 .net "rd_dir", 3 0, v0x563e30e91240_0;  alias, 1 drivers
v0x563e30e90be0_0 .var "read_data_cond", 7 0;
v0x563e30e90cc0_0 .net "reset_L", 0 0, v0x563e30e96a20_0;  alias, 1 drivers
v0x563e30e90d60_0 .net "wr_dir", 3 0, v0x563e30e91f00_0;  alias, 1 drivers
v0x563e30e90e40_0 .net "write_data", 7 0, v0x563e30e62470_0;  alias, 1 drivers
S_0x563e30e90fe0 .scope module, "read_dir_ff" "flipflop3b" 5 59, 8 1 0, S_0x563e30e8ef80;
 .timescale 0 0;
    .port_info 0 /OUTPUT 4 "Q"
    .port_info 1 /INPUT 4 "D"
    .port_info 2 /INPUT 1 "clk"
    .port_info 3 /INPUT 1 "reset_L"
v0x563e30e91160_0 .net "D", 3 0, v0x563e30e91910_0;  alias, 1 drivers
v0x563e30e91240_0 .var "Q", 3 0;
v0x563e30e91300_0 .net "clk", 0 0, v0x563e30e5dee0_0;  alias, 1 drivers
v0x563e30e913a0_0 .net "reset_L", 0 0, v0x563e30e96a20_0;  alias, 1 drivers
S_0x563e30e91480 .scope module, "read_rq" "read_Req" 5 31, 9 1 0, S_0x563e30e8ef80;
 .timescale 0 0;
    .port_info 0 /OUTPUT 4 "rd_dir"
    .port_info 1 /OUTPUT 1 "pop"
    .port_info 2 /INPUT 1 "read"
    .port_info 3 /INPUT 1 "empty"
    .port_info 4 /INPUT 1 "clk"
    .port_info 5 /INPUT 1 "reset_L"
v0x563e30e916f0_0 .net "clk", 0 0, v0x563e30e5dee0_0;  alias, 1 drivers
v0x563e30e917b0_0 .net "empty", 0 0, v0x563e30e8f8a0_0;  alias, 1 drivers
v0x563e30e91870_0 .var "pop", 0 0;
v0x563e30e91910_0 .var "rd_dir", 3 0;
v0x563e30e919b0_0 .net "read", 0 0, v0x563e30e96980_0;  alias, 1 drivers
v0x563e30e91aa0_0 .net "reset_L", 0 0, v0x563e30e96a20_0;  alias, 1 drivers
S_0x563e30e91bc0 .scope module, "write_dir_ff" "flipflop3b" 5 51, 8 1 0, S_0x563e30e8ef80;
 .timescale 0 0;
    .port_info 0 /OUTPUT 4 "Q"
    .port_info 1 /INPUT 4 "D"
    .port_info 2 /INPUT 1 "clk"
    .port_info 3 /INPUT 1 "reset_L"
v0x563e30e91e00_0 .net "D", 3 0, v0x563e30e92730_0;  alias, 1 drivers
v0x563e30e91f00_0 .var "Q", 3 0;
v0x563e30e91fc0_0 .net "clk", 0 0, v0x563e30e5dee0_0;  alias, 1 drivers
v0x563e30e92090_0 .net "reset_L", 0 0, v0x563e30e96a20_0;  alias, 1 drivers
S_0x563e30e921a0 .scope module, "write_rq" "write_Req" 5 41, 10 1 0, S_0x563e30e8ef80;
 .timescale 0 0;
    .port_info 0 /OUTPUT 4 "wr_dir"
    .port_info 1 /OUTPUT 1 "push"
    .port_info 2 /INPUT 1 "write"
    .port_info 3 /INPUT 1 "full"
    .port_info 4 /INPUT 1 "clk"
    .port_info 5 /INPUT 1 "reset_L"
v0x563e30e92410_0 .net "clk", 0 0, v0x563e30e5dee0_0;  alias, 1 drivers
v0x563e30e924d0_0 .net "full", 0 0, v0x563e30e8fce0_0;  alias, 1 drivers
v0x563e30e92590_0 .var "push", 0 0;
v0x563e30e92690_0 .net "reset_L", 0 0, v0x563e30e96a20_0;  alias, 1 drivers
v0x563e30e92730_0 .var "wr_dir", 3 0;
v0x563e30e92820_0 .net "write", 0 0, v0x563e30e96b60_0;  alias, 1 drivers
S_0x563e30e93d20 .scope module, "mux1" "Mux2a1" 3 37, 11 1 0, S_0x563e30e032d0;
 .timescale 0 0;
    .port_info 0 /INPUT 1 "clk_f"
    .port_info 1 /INPUT 10 "data_inm0"
    .port_info 2 /INPUT 10 "data_inm1"
    .port_info 3 /INPUT 1 "valid0"
    .port_info 4 /INPUT 1 "valid1"
    .port_info 5 /INPUT 1 "selectorautomatico"
    .port_info 6 /INPUT 1 "reset"
    .port_info 7 /OUTPUT 1 "valid_out"
    .port_info 8 /OUTPUT 10 "data_outm"
v0x563e30e94080_0 .var "a", 9 0;
v0x563e30e94180_0 .net "clk_f", 0 0, v0x563e30e5dee0_0;  alias, 1 drivers
v0x563e30e94240_0 .net "data_inm0", 9 0, v0x563e30e96430_0;  alias, 1 drivers
v0x563e30e942e0_0 .net "data_inm1", 9 0, v0x563e30e96540_0;  alias, 1 drivers
v0x563e30e943c0_0 .var "data_outm", 9 0;
v0x563e30e944f0_0 .net "reset", 0 0, v0x563e30e96a20_0;  alias, 1 drivers
v0x563e30e94590_0 .net "selectorautomatico", 0 0, v0x563e30e96ac0_0;  alias, 1 drivers
L_0x7f07cdc6e018 .functor BUFT 1, C4<1>, C4<0>, C4<0>, C4<0>;
v0x563e30e94650_0 .net "valid0", 0 0, L_0x7f07cdc6e018;  1 drivers
L_0x7f07cdc6e060 .functor BUFT 1, C4<1>, C4<0>, C4<0>, C4<0>;
v0x563e30e94710_0 .net "valid1", 0 0, L_0x7f07cdc6e060;  1 drivers
v0x563e30e947d0_0 .var "valid_out", 0 0;
v0x563e30e94890_0 .var "validtemp", 0 0;
E_0x563e30e4ac10/0 .event edge, v0x563e30e94590_0, v0x563e30e94650_0, v0x563e30e94240_0, v0x563e30e943c0_0;
E_0x563e30e4ac10/1 .event edge, v0x563e30e94710_0, v0x563e30e942e0_0;
E_0x563e30e4ac10 .event/or E_0x563e30e4ac10/0, E_0x563e30e4ac10/1;
S_0x563e30e96240 .scope module, "pb" "probador" 2 61, 12 1 0, S_0x563e30e02b70;
 .timescale 0 0;
    .port_info 0 /INPUT 8 "data_out0"
    .port_info 1 /INPUT 8 "data_out1"
    .port_info 2 /OUTPUT 10 "data_in0"
    .port_info 3 /OUTPUT 10 "data_in1"
    .port_info 4 /OUTPUT 1 "read"
    .port_info 5 /OUTPUT 1 "write"
    .port_info 6 /OUTPUT 4 "empty_TH"
    .port_info 7 /OUTPUT 4 "full_TH"
    .port_info 8 /OUTPUT 1 "clk"
    .port_info 9 /OUTPUT 1 "selectorautomatico"
    .port_info 10 /OUTPUT 1 "reset"
v0x563e30e5dee0_0 .var "clk", 0 0;
v0x563e30e96430_0 .var "data_in0", 9 0;
v0x563e30e96540_0 .var "data_in1", 9 0;
v0x563e30e96630_0 .net "data_out0", 7 0, v0x563e30e8bd90_0;  alias, 1 drivers
v0x563e30e966f0_0 .net "data_out1", 7 0, v0x563e30e90be0_0;  alias, 1 drivers
v0x563e30e96800_0 .var "empty_TH", 3 0;
v0x563e30e968c0_0 .var "full_TH", 3 0;
v0x563e30e96980_0 .var "read", 0 0;
v0x563e30e96a20_0 .var "reset", 0 0;
v0x563e30e96ac0_0 .var "selectorautomatico", 0 0;
v0x563e30e96b60_0 .var "write", 0 0;
    .scope S_0x563e30e93d20;
T_0 ;
    %wait E_0x563e30e4ac10;
    %pushi/vec4 0, 0, 10;
    %store/vec4 v0x563e30e94080_0, 0, 10;
    %pushi/vec4 0, 0, 1;
    %store/vec4 v0x563e30e94890_0, 0, 1;
    %load/vec4 v0x563e30e94590_0;
    %pad/u 32;
    %cmpi/e 0, 0, 32;
    %jmp/0xz  T_0.0, 4;
    %load/vec4 v0x563e30e94650_0;
    %store/vec4 v0x563e30e94890_0, 0, 1;
    %load/vec4 v0x563e30e94650_0;
    %flag_set/vec4 8;
    %jmp/0xz  T_0.2, 8;
    %load/vec4 v0x563e30e94240_0;
    %store/vec4 v0x563e30e94080_0, 0, 10;
    %jmp T_0.3;
T_0.2 ;
    %load/vec4 v0x563e30e943c0_0;
    %store/vec4 v0x563e30e94080_0, 0, 10;
T_0.3 ;
    %jmp T_0.1;
T_0.0 ;
    %load/vec4 v0x563e30e94710_0;
    %store/vec4 v0x563e30e94890_0, 0, 1;
    %load/vec4 v0x563e30e94710_0;
    %flag_set/vec4 8;
    %jmp/0xz  T_0.4, 8;
    %load/vec4 v0x563e30e942e0_0;
    %store/vec4 v0x563e30e94080_0, 0, 10;
    %jmp T_0.5;
T_0.4 ;
    %load/vec4 v0x563e30e943c0_0;
    %store/vec4 v0x563e30e94080_0, 0, 10;
T_0.5 ;
T_0.1 ;
    %jmp T_0;
    .thread T_0, $push;
    .scope S_0x563e30e93d20;
T_1 ;
    %wait E_0x563e30e4b640;
    %load/vec4 v0x563e30e94890_0;
    %assign/vec4 v0x563e30e947d0_0, 0;
    %load/vec4 v0x563e30e944f0_0;
    %pad/u 32;
    %cmpi/e 1, 0, 32;
    %jmp/0xz  T_1.0, 4;
    %load/vec4 v0x563e30e94080_0;
    %assign/vec4 v0x563e30e943c0_0, 0;
    %jmp T_1.1;
T_1.0 ;
    %pushi/vec4 0, 0, 10;
    %assign/vec4 v0x563e30e943c0_0, 0;
T_1.1 ;
    %jmp T_1;
    .thread T_1;
    .scope S_0x563e30e15810;
T_2 ;
    %wait E_0x563e30e4b640;
    %load/vec4 v0x563e30e8a1e0_0;
    %pad/u 32;
    %cmpi/e 0, 0, 32;
    %jmp/0xz  T_2.0, 4;
    %pushi/vec4 0, 0, 8;
    %assign/vec4 v0x563e30e62470_0, 0;
    %pushi/vec4 0, 0, 8;
    %assign/vec4 v0x563e30e5bbf0_0, 0;
    %jmp T_2.1;
T_2.0 ;
    %load/vec4 v0x563e30e8a100_0;
    %assign/vec4 v0x563e30e62470_0, 0;
    %load/vec4 v0x563e30e3a2f0_0;
    %assign/vec4 v0x563e30e5bbf0_0, 0;
T_2.1 ;
    %jmp T_2;
    .thread T_2;
    .scope S_0x563e30e15810;
T_3 ;
    %wait E_0x563e30e4b7b0;
    %pushi/vec4 0, 0, 8;
    %store/vec4 v0x563e30e8a100_0, 0, 8;
    %pushi/vec4 0, 0, 8;
    %store/vec4 v0x563e30e3a2f0_0, 0, 8;
    %load/vec4 v0x563e30e8a2a0_0;
    %pad/u 32;
    %cmpi/e 0, 0, 32;
    %jmp/0xz  T_3.0, 4;
    %load/vec4 v0x563e30e5eeb0_0;
    %store/vec4 v0x563e30e3a2f0_0, 0, 8;
    %load/vec4 v0x563e30e62470_0;
    %store/vec4 v0x563e30e8a100_0, 0, 8;
    %jmp T_3.1;
T_3.0 ;
    %load/vec4 v0x563e30e5eeb0_0;
    %store/vec4 v0x563e30e8a100_0, 0, 8;
    %load/vec4 v0x563e30e5bbf0_0;
    %store/vec4 v0x563e30e3a2f0_0, 0, 8;
T_3.1 ;
    %jmp T_3;
    .thread T_3, $push;
    .scope S_0x563e30e8b5b0;
T_4 ;
    %wait E_0x563e30e4b640;
    %load/vec4 v0x563e30e8be70_0;
    %nor/r;
    %flag_set/vec4 8;
    %jmp/0xz  T_4.0, 8;
    %pushi/vec4 0, 0, 8;
    %assign/vec4 v0x563e30e8bd90_0, 0;
    %pushi/vec4 0, 0, 32;
    %store/vec4 v0x563e30e8ba40_0, 0, 32;
T_4.2 ;
    %load/vec4 v0x563e30e8ba40_0;
    %cmpi/s 6, 0, 32;
    %jmp/0xz T_4.3, 5;
    %pushi/vec4 0, 0, 8;
    %ix/getv/s 4, v0x563e30e8ba40_0;
    %store/vec4a v0x563e30e8b870, 4, 0;
    %load/vec4 v0x563e30e8ba40_0;
    %addi 1, 0, 32;
    %store/vec4 v0x563e30e8ba40_0, 0, 32;
    %jmp T_4.2;
T_4.3 ;
    %jmp T_4.1;
T_4.0 ;
    %load/vec4 v0x563e30e8bba0_0;
    %flag_set/vec4 8;
    %jmp/0xz  T_4.4, 8;
    %load/vec4 v0x563e30e8c0d0_0;
    %ix/getv 3, v0x563e30e8bf60_0;
    %ix/load 4, 0, 0; Constant delay
    %assign/vec4/a/d v0x563e30e8b870, 0, 4;
T_4.4 ;
    %load/vec4 v0x563e30e8bae0_0;
    %flag_set/vec4 8;
    %jmp/0xz  T_4.6, 8;
    %ix/getv 4, v0x563e30e8bcb0_0;
    %load/vec4a v0x563e30e8b870, 4;
    %assign/vec4 v0x563e30e8bd90_0, 0;
    %jmp T_4.7;
T_4.6 ;
    %pushi/vec4 0, 0, 8;
    %assign/vec4 v0x563e30e8bd90_0, 0;
T_4.7 ;
T_4.1 ;
    %jmp T_4;
    .thread T_4;
    .scope S_0x563e30e8c710;
T_5 ;
    %wait E_0x563e30e4b640;
    %load/vec4 v0x563e30e8cdd0_0;
    %nor/r;
    %flag_set/vec4 8;
    %jmp/0xz  T_5.0, 8;
    %pushi/vec4 0, 0, 4;
    %assign/vec4 v0x563e30e8cc60_0, 0;
    %pushi/vec4 0, 0, 1;
    %assign/vec4 v0x563e30e8cb90_0, 0;
    %jmp T_5.1;
T_5.0 ;
    %load/vec4 v0x563e30e8cd30_0;
    %load/vec4 v0x563e30e8cad0_0;
    %nor/r;
    %and;
    %flag_set/vec4 8;
    %jmp/0xz  T_5.2, 8;
    %pushi/vec4 1, 0, 1;
    %assign/vec4 v0x563e30e8cb90_0, 0;
    %load/vec4 v0x563e30e8cc60_0;
    %addi 1, 0, 4;
    %assign/vec4 v0x563e30e8cc60_0, 0;
    %load/vec4 v0x563e30e8cc60_0;
    %pad/u 32;
    %cmpi/e 5, 0, 32;
    %jmp/0xz  T_5.4, 4;
    %pushi/vec4 0, 0, 4;
    %assign/vec4 v0x563e30e8cc60_0, 0;
T_5.4 ;
    %jmp T_5.3;
T_5.2 ;
    %pushi/vec4 0, 0, 1;
    %assign/vec4 v0x563e30e8cb90_0, 0;
T_5.3 ;
T_5.1 ;
    %jmp T_5;
    .thread T_5;
    .scope S_0x563e30e8d4c0;
T_6 ;
    %wait E_0x563e30e4b640;
    %load/vec4 v0x563e30e8d9b0_0;
    %nor/r;
    %flag_set/vec4 8;
    %jmp/0xz  T_6.0, 8;
    %pushi/vec4 0, 0, 4;
    %assign/vec4 v0x563e30e8da50_0, 0;
    %pushi/vec4 0, 0, 1;
    %assign/vec4 v0x563e30e8d8b0_0, 0;
    %jmp T_6.1;
T_6.0 ;
    %load/vec4 v0x563e30e8db40_0;
    %load/vec4 v0x563e30e8d7f0_0;
    %nor/r;
    %and;
    %flag_set/vec4 8;
    %jmp/0xz  T_6.2, 8;
    %pushi/vec4 1, 0, 1;
    %assign/vec4 v0x563e30e8d8b0_0, 0;
    %load/vec4 v0x563e30e8da50_0;
    %addi 1, 0, 4;
    %assign/vec4 v0x563e30e8da50_0, 0;
    %load/vec4 v0x563e30e8da50_0;
    %pad/u 32;
    %cmpi/e 5, 0, 32;
    %jmp/0xz  T_6.4, 4;
    %pushi/vec4 0, 0, 4;
    %assign/vec4 v0x563e30e8da50_0, 0;
T_6.4 ;
    %jmp T_6.3;
T_6.2 ;
    %pushi/vec4 0, 0, 1;
    %assign/vec4 v0x563e30e8d8b0_0, 0;
T_6.3 ;
T_6.1 ;
    %jmp T_6;
    .thread T_6;
    .scope S_0x563e30e8cf20;
T_7 ;
    %wait E_0x563e30e4b640;
    %load/vec4 v0x563e30e8d3b0_0;
    %nor/r;
    %flag_set/vec4 8;
    %jmp/0xz  T_7.0, 8;
    %pushi/vec4 0, 0, 4;
    %assign/vec4 v0x563e30e8d1f0_0, 0;
    %jmp T_7.1;
T_7.0 ;
    %load/vec4 v0x563e30e8d0f0_0;
    %assign/vec4 v0x563e30e8d1f0_0, 0;
T_7.1 ;
    %jmp T_7;
    .thread T_7;
    .scope S_0x563e30e8c270;
T_8 ;
    %wait E_0x563e30e4b640;
    %load/vec4 v0x563e30e8c630_0;
    %nor/r;
    %flag_set/vec4 8;
    %jmp/0xz  T_8.0, 8;
    %pushi/vec4 0, 0, 4;
    %assign/vec4 v0x563e30e8c4d0_0, 0;
    %jmp T_8.1;
T_8.0 ;
    %load/vec4 v0x563e30e8c3f0_0;
    %assign/vec4 v0x563e30e8c4d0_0, 0;
T_8.1 ;
    %jmp T_8;
    .thread T_8;
    .scope S_0x563e30e8a740;
T_9 ;
    %wait E_0x563e30e4b640;
    %load/vec4 v0x563e30e8b2f0_0;
    %nor/r;
    %flag_set/vec4 8;
    %jmp/0xz  T_9.0, 8;
    %pushi/vec4 0, 0, 4;
    %assign/vec4 v0x563e30e8ab00_0, 0;
    %pushi/vec4 0, 0, 1;
    %assign/vec4 v0x563e30e8af10_0, 0;
    %pushi/vec4 0, 0, 1;
    %assign/vec4 v0x563e30e8ae50_0, 0;
    %pushi/vec4 0, 0, 1;
    %assign/vec4 v0x563e30e8ac60_0, 0;
    %pushi/vec4 0, 0, 1;
    %assign/vec4 v0x563e30e8b090_0, 0;
    %pushi/vec4 0, 0, 1;
    %assign/vec4 v0x563e30e8afd0_0, 0;
    %pushi/vec4 0, 0, 1;
    %assign/vec4 v0x563e30e8abc0_0, 0;
    %jmp T_9.1;
T_9.0 ;
    %load/vec4 v0x563e30e8b150_0;
    %load/vec4 v0x563e30e8ab00_0;
    %cmp/u;
    %flag_or 5, 4;
    %jmp/0xz  T_9.2, 5;
    %pushi/vec4 1, 0, 1;
    %assign/vec4 v0x563e30e8b090_0, 0;
    %jmp T_9.3;
T_9.2 ;
    %pushi/vec4 0, 0, 1;
    %assign/vec4 v0x563e30e8b090_0, 0;
T_9.3 ;
    %load/vec4 v0x563e30e8ab00_0;
    %load/vec4 v0x563e30e8ad20_0;
    %cmp/u;
    %flag_or 5, 4;
    %jmp/0xz  T_9.4, 5;
    %pushi/vec4 1, 0, 1;
    %assign/vec4 v0x563e30e8ac60_0, 0;
    %jmp T_9.5;
T_9.4 ;
    %pushi/vec4 0, 0, 1;
    %assign/vec4 v0x563e30e8ac60_0, 0;
T_9.5 ;
    %load/vec4 v0x563e30e8ab00_0;
    %pad/u 32;
    %cmpi/e 0, 0, 32;
    %jmp/0xz  T_9.6, 4;
    %load/vec4 v0x563e30e8b230_0;
    %flag_set/vec4 8;
    %jmp/0xz  T_9.8, 8;
    %pushi/vec4 1, 0, 1;
    %assign/vec4 v0x563e30e8ae50_0, 0;
    %jmp T_9.9;
T_9.8 ;
    %pushi/vec4 0, 0, 1;
    %assign/vec4 v0x563e30e8ae50_0, 0;
T_9.9 ;
    %jmp T_9.7;
T_9.6 ;
    %load/vec4 v0x563e30e8b230_0;
    %flag_set/vec4 8;
    %jmp/0xz  T_9.10, 8;
    %load/vec4 v0x563e30e8ab00_0;
    %subi 1, 0, 4;
    %assign/vec4 v0x563e30e8ab00_0, 0;
    %pushi/vec4 0, 0, 1;
    %assign/vec4 v0x563e30e8ae50_0, 0;
    %load/vec4 v0x563e30e8ab00_0;
    %pad/u 32;
    %cmpi/e 1, 0, 32;
    %jmp/0xz  T_9.12, 4;
    %pushi/vec4 1, 0, 1;
    %assign/vec4 v0x563e30e8abc0_0, 0;
    %jmp T_9.13;
T_9.12 ;
    %load/vec4 v0x563e30e8ab00_0;
    %pad/u 32;
    %cmpi/u 8, 0, 32;
    %flag_or 5, 4;
    %jmp/0xz  T_9.14, 5;
    %pushi/vec4 0, 0, 1;
    %assign/vec4 v0x563e30e8afd0_0, 0;
T_9.14 ;
T_9.13 ;
T_9.10 ;
T_9.7 ;
    %load/vec4 v0x563e30e8ab00_0;
    %pad/u 32;
    %cmpi/e 6, 0, 32;
    %jmp/0xz  T_9.16, 4;
    %load/vec4 v0x563e30e8b390_0;
    %flag_set/vec4 8;
    %jmp/0xz  T_9.18, 8;
    %pushi/vec4 1, 0, 1;
    %assign/vec4 v0x563e30e8af10_0, 0;
    %jmp T_9.19;
T_9.18 ;
    %pushi/vec4 0, 0, 1;
    %assign/vec4 v0x563e30e8af10_0, 0;
T_9.19 ;
    %jmp T_9.17;
T_9.16 ;
    %load/vec4 v0x563e30e8b390_0;
    %flag_set/vec4 8;
    %jmp/0xz  T_9.20, 8;
    %load/vec4 v0x563e30e8ab00_0;
    %addi 1, 0, 4;
    %assign/vec4 v0x563e30e8ab00_0, 0;
    %pushi/vec4 0, 0, 1;
    %assign/vec4 v0x563e30e8af10_0, 0;
    %load/vec4 v0x563e30e8ab00_0;
    %pad/u 32;
    %cmpi/e 5, 0, 32;
    %jmp/0xz  T_9.22, 4;
    %pushi/vec4 1, 0, 1;
    %assign/vec4 v0x563e30e8afd0_0, 0;
    %jmp T_9.23;
T_9.22 ;
    %pushi/vec4 0, 0, 32;
    %load/vec4 v0x563e30e8ab00_0;
    %pad/u 32;
    %cmp/u;
    %flag_or 5, 4;
    %jmp/0xz  T_9.24, 5;
    %pushi/vec4 0, 0, 1;
    %assign/vec4 v0x563e30e8abc0_0, 0;
T_9.24 ;
T_9.23 ;
T_9.20 ;
T_9.17 ;
    %load/vec4 v0x563e30e8b230_0;
    %load/vec4 v0x563e30e8b390_0;
    %and;
    %flag_set/vec4 8;
    %jmp/0xz  T_9.26, 8;
    %load/vec4 v0x563e30e8ab00_0;
    %assign/vec4 v0x563e30e8ab00_0, 0;
T_9.26 ;
T_9.1 ;
    %jmp T_9;
    .thread T_9;
    .scope S_0x563e30e90400;
T_10 ;
    %wait E_0x563e30e4b640;
    %load/vec4 v0x563e30e90cc0_0;
    %nor/r;
    %flag_set/vec4 8;
    %jmp/0xz  T_10.0, 8;
    %pushi/vec4 0, 0, 8;
    %assign/vec4 v0x563e30e90be0_0, 0;
    %pushi/vec4 0, 0, 32;
    %store/vec4 v0x563e30e90890_0, 0, 32;
T_10.2 ;
    %load/vec4 v0x563e30e90890_0;
    %cmpi/s 6, 0, 32;
    %jmp/0xz T_10.3, 5;
    %pushi/vec4 0, 0, 8;
    %ix/getv/s 4, v0x563e30e90890_0;
    %store/vec4a v0x563e30e90710, 4, 0;
    %load/vec4 v0x563e30e90890_0;
    %addi 1, 0, 32;
    %store/vec4 v0x563e30e90890_0, 0, 32;
    %jmp T_10.2;
T_10.3 ;
    %jmp T_10.1;
T_10.0 ;
    %load/vec4 v0x563e30e909f0_0;
    %flag_set/vec4 8;
    %jmp/0xz  T_10.4, 8;
    %load/vec4 v0x563e30e90e40_0;
    %ix/getv 3, v0x563e30e90d60_0;
    %ix/load 4, 0, 0; Constant delay
    %assign/vec4/a/d v0x563e30e90710, 0, 4;
T_10.4 ;
    %load/vec4 v0x563e30e90930_0;
    %flag_set/vec4 8;
    %jmp/0xz  T_10.6, 8;
    %ix/getv 4, v0x563e30e90b00_0;
    %load/vec4a v0x563e30e90710, 4;
    %assign/vec4 v0x563e30e90be0_0, 0;
    %jmp T_10.7;
T_10.6 ;
    %pushi/vec4 0, 0, 8;
    %assign/vec4 v0x563e30e90be0_0, 0;
T_10.7 ;
T_10.1 ;
    %jmp T_10;
    .thread T_10;
    .scope S_0x563e30e91480;
T_11 ;
    %wait E_0x563e30e4b640;
    %load/vec4 v0x563e30e91aa0_0;
    %nor/r;
    %flag_set/vec4 8;
    %jmp/0xz  T_11.0, 8;
    %pushi/vec4 0, 0, 4;
    %assign/vec4 v0x563e30e91910_0, 0;
    %pushi/vec4 0, 0, 1;
    %assign/vec4 v0x563e30e91870_0, 0;
    %jmp T_11.1;
T_11.0 ;
    %load/vec4 v0x563e30e919b0_0;
    %load/vec4 v0x563e30e917b0_0;
    %nor/r;
    %and;
    %flag_set/vec4 8;
    %jmp/0xz  T_11.2, 8;
    %pushi/vec4 1, 0, 1;
    %assign/vec4 v0x563e30e91870_0, 0;
    %load/vec4 v0x563e30e91910_0;
    %addi 1, 0, 4;
    %assign/vec4 v0x563e30e91910_0, 0;
    %load/vec4 v0x563e30e91910_0;
    %pad/u 32;
    %cmpi/e 5, 0, 32;
    %jmp/0xz  T_11.4, 4;
    %pushi/vec4 0, 0, 4;
    %assign/vec4 v0x563e30e91910_0, 0;
T_11.4 ;
    %jmp T_11.3;
T_11.2 ;
    %pushi/vec4 0, 0, 1;
    %assign/vec4 v0x563e30e91870_0, 0;
T_11.3 ;
T_11.1 ;
    %jmp T_11;
    .thread T_11;
    .scope S_0x563e30e921a0;
T_12 ;
    %wait E_0x563e30e4b640;
    %load/vec4 v0x563e30e92690_0;
    %nor/r;
    %flag_set/vec4 8;
    %jmp/0xz  T_12.0, 8;
    %pushi/vec4 0, 0, 4;
    %assign/vec4 v0x563e30e92730_0, 0;
    %pushi/vec4 0, 0, 1;
    %assign/vec4 v0x563e30e92590_0, 0;
    %jmp T_12.1;
T_12.0 ;
    %load/vec4 v0x563e30e92820_0;
    %load/vec4 v0x563e30e924d0_0;
    %nor/r;
    %and;
    %flag_set/vec4 8;
    %jmp/0xz  T_12.2, 8;
    %pushi/vec4 1, 0, 1;
    %assign/vec4 v0x563e30e92590_0, 0;
    %load/vec4 v0x563e30e92730_0;
    %addi 1, 0, 4;
    %assign/vec4 v0x563e30e92730_0, 0;
    %load/vec4 v0x563e30e92730_0;
    %pad/u 32;
    %cmpi/e 5, 0, 32;
    %jmp/0xz  T_12.4, 4;
    %pushi/vec4 0, 0, 4;
    %assign/vec4 v0x563e30e92730_0, 0;
T_12.4 ;
    %jmp T_12.3;
T_12.2 ;
    %pushi/vec4 0, 0, 1;
    %assign/vec4 v0x563e30e92590_0, 0;
T_12.3 ;
T_12.1 ;
    %jmp T_12;
    .thread T_12;
    .scope S_0x563e30e91bc0;
T_13 ;
    %wait E_0x563e30e4b640;
    %load/vec4 v0x563e30e92090_0;
    %nor/r;
    %flag_set/vec4 8;
    %jmp/0xz  T_13.0, 8;
    %pushi/vec4 0, 0, 4;
    %assign/vec4 v0x563e30e91f00_0, 0;
    %jmp T_13.1;
T_13.0 ;
    %load/vec4 v0x563e30e91e00_0;
    %assign/vec4 v0x563e30e91f00_0, 0;
T_13.1 ;
    %jmp T_13;
    .thread T_13;
    .scope S_0x563e30e90fe0;
T_14 ;
    %wait E_0x563e30e4b640;
    %load/vec4 v0x563e30e913a0_0;
    %nor/r;
    %flag_set/vec4 8;
    %jmp/0xz  T_14.0, 8;
    %pushi/vec4 0, 0, 4;
    %assign/vec4 v0x563e30e91240_0, 0;
    %jmp T_14.1;
T_14.0 ;
    %load/vec4 v0x563e30e91160_0;
    %assign/vec4 v0x563e30e91240_0, 0;
T_14.1 ;
    %jmp T_14;
    .thread T_14;
    .scope S_0x563e30e8f280;
T_15 ;
    %wait E_0x563e30e4b640;
    %load/vec4 v0x563e30e8ffc0_0;
    %nor/r;
    %flag_set/vec4 8;
    %jmp/0xz  T_15.0, 8;
    %pushi/vec4 0, 0, 4;
    %assign/vec4 v0x563e30e8f7c0_0, 0;
    %pushi/vec4 0, 0, 1;
    %assign/vec4 v0x563e30e8fc20_0, 0;
    %pushi/vec4 0, 0, 1;
    %assign/vec4 v0x563e30e8fb60_0, 0;
    %pushi/vec4 0, 0, 1;
    %assign/vec4 v0x563e30e8f940_0, 0;
    %pushi/vec4 0, 0, 1;
    %assign/vec4 v0x563e30e8fda0_0, 0;
    %pushi/vec4 0, 0, 1;
    %assign/vec4 v0x563e30e8fce0_0, 0;
    %pushi/vec4 0, 0, 1;
    %assign/vec4 v0x563e30e8f8a0_0, 0;
    %jmp T_15.1;
T_15.0 ;
    %load/vec4 v0x563e30e8fe60_0;
    %load/vec4 v0x563e30e8f7c0_0;
    %cmp/u;
    %flag_or 5, 4;
    %jmp/0xz  T_15.2, 5;
    %pushi/vec4 1, 0, 1;
    %assign/vec4 v0x563e30e8fda0_0, 0;
    %jmp T_15.3;
T_15.2 ;
    %pushi/vec4 0, 0, 1;
    %assign/vec4 v0x563e30e8fda0_0, 0;
T_15.3 ;
    %load/vec4 v0x563e30e8f7c0_0;
    %load/vec4 v0x563e30e8fa00_0;
    %cmp/u;
    %flag_or 5, 4;
    %jmp/0xz  T_15.4, 5;
    %pushi/vec4 1, 0, 1;
    %assign/vec4 v0x563e30e8f940_0, 0;
    %jmp T_15.5;
T_15.4 ;
    %pushi/vec4 0, 0, 1;
    %assign/vec4 v0x563e30e8f940_0, 0;
T_15.5 ;
    %load/vec4 v0x563e30e8f7c0_0;
    %pad/u 32;
    %cmpi/e 0, 0, 32;
    %jmp/0xz  T_15.6, 4;
    %load/vec4 v0x563e30e8ff20_0;
    %flag_set/vec4 8;
    %jmp/0xz  T_15.8, 8;
    %pushi/vec4 1, 0, 1;
    %assign/vec4 v0x563e30e8fb60_0, 0;
    %jmp T_15.9;
T_15.8 ;
    %pushi/vec4 0, 0, 1;
    %assign/vec4 v0x563e30e8fb60_0, 0;
T_15.9 ;
    %jmp T_15.7;
T_15.6 ;
    %load/vec4 v0x563e30e8ff20_0;
    %flag_set/vec4 8;
    %jmp/0xz  T_15.10, 8;
    %load/vec4 v0x563e30e8f7c0_0;
    %subi 1, 0, 4;
    %assign/vec4 v0x563e30e8f7c0_0, 0;
    %pushi/vec4 0, 0, 1;
    %assign/vec4 v0x563e30e8fb60_0, 0;
    %load/vec4 v0x563e30e8f7c0_0;
    %pad/u 32;
    %cmpi/e 1, 0, 32;
    %jmp/0xz  T_15.12, 4;
    %pushi/vec4 1, 0, 1;
    %assign/vec4 v0x563e30e8f8a0_0, 0;
    %jmp T_15.13;
T_15.12 ;
    %load/vec4 v0x563e30e8f7c0_0;
    %pad/u 32;
    %cmpi/u 8, 0, 32;
    %flag_or 5, 4;
    %jmp/0xz  T_15.14, 5;
    %pushi/vec4 0, 0, 1;
    %assign/vec4 v0x563e30e8fce0_0, 0;
T_15.14 ;
T_15.13 ;
T_15.10 ;
T_15.7 ;
    %load/vec4 v0x563e30e8f7c0_0;
    %pad/u 32;
    %cmpi/e 6, 0, 32;
    %jmp/0xz  T_15.16, 4;
    %load/vec4 v0x563e30e90170_0;
    %flag_set/vec4 8;
    %jmp/0xz  T_15.18, 8;
    %pushi/vec4 1, 0, 1;
    %assign/vec4 v0x563e30e8fc20_0, 0;
    %jmp T_15.19;
T_15.18 ;
    %pushi/vec4 0, 0, 1;
    %assign/vec4 v0x563e30e8fc20_0, 0;
T_15.19 ;
    %jmp T_15.17;
T_15.16 ;
    %load/vec4 v0x563e30e90170_0;
    %flag_set/vec4 8;
    %jmp/0xz  T_15.20, 8;
    %load/vec4 v0x563e30e8f7c0_0;
    %addi 1, 0, 4;
    %assign/vec4 v0x563e30e8f7c0_0, 0;
    %pushi/vec4 0, 0, 1;
    %assign/vec4 v0x563e30e8fc20_0, 0;
    %load/vec4 v0x563e30e8f7c0_0;
    %pad/u 32;
    %cmpi/e 5, 0, 32;
    %jmp/0xz  T_15.22, 4;
    %pushi/vec4 1, 0, 1;
    %assign/vec4 v0x563e30e8fce0_0, 0;
    %jmp T_15.23;
T_15.22 ;
    %pushi/vec4 0, 0, 32;
    %load/vec4 v0x563e30e8f7c0_0;
    %pad/u 32;
    %cmp/u;
    %flag_or 5, 4;
    %jmp/0xz  T_15.24, 5;
    %pushi/vec4 0, 0, 1;
    %assign/vec4 v0x563e30e8f8a0_0, 0;
T_15.24 ;
T_15.23 ;
T_15.20 ;
T_15.17 ;
    %load/vec4 v0x563e30e8ff20_0;
    %load/vec4 v0x563e30e90170_0;
    %and;
    %flag_set/vec4 8;
    %jmp/0xz  T_15.26, 8;
    %load/vec4 v0x563e30e8f7c0_0;
    %assign/vec4 v0x563e30e8f7c0_0, 0;
T_15.26 ;
T_15.1 ;
    %jmp T_15;
    .thread T_15;
    .scope S_0x563e30e96240;
T_16 ;
    %vpi_call 12 18 "$dumpfile", "enrutamiento.vcd" {0 0 0};
    %vpi_call 12 19 "$dumpvars" {0 0 0};
    %pushi/vec4 1, 0, 4;
    %assign/vec4 v0x563e30e96800_0, 0;
    %pushi/vec4 5, 0, 4;
    %assign/vec4 v0x563e30e968c0_0, 0;
    %pushi/vec4 751, 0, 10;
    %assign/vec4 v0x563e30e96430_0, 0;
    %pushi/vec4 1019, 0, 10;
    %assign/vec4 v0x563e30e96540_0, 0;
    %pushi/vec4 0, 0, 1;
    %assign/vec4 v0x563e30e96b60_0, 0;
    %pushi/vec4 0, 0, 1;
    %assign/vec4 v0x563e30e96980_0, 0;
    %pushi/vec4 0, 0, 1;
    %assign/vec4 v0x563e30e96a20_0, 0;
    %wait E_0x563e30e4b640;
    %pushi/vec4 0, 0, 1;
    %assign/vec4 v0x563e30e96a20_0, 0;
    %wait E_0x563e30e4b640;
    %pushi/vec4 1, 0, 1;
    %assign/vec4 v0x563e30e96a20_0, 0;
    %wait E_0x563e30e4b640;
    %pushi/vec4 745, 0, 10;
    %assign/vec4 v0x563e30e96430_0, 0;
    %pushi/vec4 0, 0, 1;
    %store/vec4 v0x563e30e96ac0_0, 0, 1;
    %pushi/vec4 1, 0, 1;
    %assign/vec4 v0x563e30e96b60_0, 0;
    %wait E_0x563e30e4b640;
    %pushi/vec4 363, 0, 10;
    %assign/vec4 v0x563e30e96540_0, 0;
    %pushi/vec4 1, 0, 1;
    %store/vec4 v0x563e30e96ac0_0, 0, 1;
    %wait E_0x563e30e4b640;
    %pushi/vec4 746, 0, 10;
    %assign/vec4 v0x563e30e96430_0, 0;
    %pushi/vec4 0, 0, 1;
    %store/vec4 v0x563e30e96ac0_0, 0, 1;
    %wait E_0x563e30e4b640;
    %pushi/vec4 366, 0, 10;
    %assign/vec4 v0x563e30e96540_0, 0;
    %pushi/vec4 1, 0, 1;
    %store/vec4 v0x563e30e96ac0_0, 0, 1;
    %wait E_0x563e30e4b640;
    %pushi/vec4 751, 0, 10;
    %assign/vec4 v0x563e30e96430_0, 0;
    %pushi/vec4 0, 0, 1;
    %store/vec4 v0x563e30e96ac0_0, 0, 1;
    %wait E_0x563e30e4b640;
    %pushi/vec4 361, 0, 10;
    %assign/vec4 v0x563e30e96540_0, 0;
    %pushi/vec4 1, 0, 1;
    %store/vec4 v0x563e30e96ac0_0, 0, 1;
    %wait E_0x563e30e4b640;
    %pushi/vec4 745, 0, 10;
    %assign/vec4 v0x563e30e96430_0, 0;
    %pushi/vec4 0, 0, 1;
    %store/vec4 v0x563e30e96ac0_0, 0, 1;
    %pushi/vec4 0, 0, 1;
    %assign/vec4 v0x563e30e96b60_0, 0;
    %wait E_0x563e30e4b640;
    %pushi/vec4 363, 0, 10;
    %assign/vec4 v0x563e30e96540_0, 0;
    %pushi/vec4 1, 0, 1;
    %store/vec4 v0x563e30e96ac0_0, 0, 1;
    %wait E_0x563e30e4b640;
    %pushi/vec4 747, 0, 10;
    %assign/vec4 v0x563e30e96430_0, 0;
    %pushi/vec4 0, 0, 1;
    %store/vec4 v0x563e30e96ac0_0, 0, 1;
    %pushi/vec4 1, 0, 1;
    %assign/vec4 v0x563e30e96980_0, 0;
    %wait E_0x563e30e4b640;
    %pushi/vec4 363, 0, 10;
    %assign/vec4 v0x563e30e96540_0, 0;
    %pushi/vec4 1, 0, 1;
    %store/vec4 v0x563e30e96ac0_0, 0, 1;
    %wait E_0x563e30e4b640;
    %pushi/vec4 747, 0, 10;
    %assign/vec4 v0x563e30e96430_0, 0;
    %pushi/vec4 0, 0, 1;
    %store/vec4 v0x563e30e96ac0_0, 0, 1;
    %wait E_0x563e30e4b640;
    %pushi/vec4 366, 0, 10;
    %assign/vec4 v0x563e30e96540_0, 0;
    %pushi/vec4 1, 0, 1;
    %store/vec4 v0x563e30e96ac0_0, 0, 1;
    %wait E_0x563e30e4b640;
    %pushi/vec4 745, 0, 10;
    %assign/vec4 v0x563e30e96430_0, 0;
    %pushi/vec4 0, 0, 1;
    %store/vec4 v0x563e30e96ac0_0, 0, 1;
    %wait E_0x563e30e4b640;
    %pushi/vec4 361, 0, 10;
    %assign/vec4 v0x563e30e96540_0, 0;
    %pushi/vec4 1, 0, 1;
    %store/vec4 v0x563e30e96ac0_0, 0, 1;
    %wait E_0x563e30e4b640;
    %pushi/vec4 489, 0, 10;
    %assign/vec4 v0x563e30e96540_0, 0;
    %pushi/vec4 1, 0, 1;
    %store/vec4 v0x563e30e96ac0_0, 0, 1;
    %wait E_0x563e30e4b640;
    %pushi/vec4 363, 0, 10;
    %assign/vec4 v0x563e30e96540_0, 0;
    %pushi/vec4 1, 0, 1;
    %store/vec4 v0x563e30e96ac0_0, 0, 1;
    %vpi_call 12 136 "$finish" {0 0 0};
    %end;
    .thread T_16;
    .scope S_0x563e30e96240;
T_17 ;
    %pushi/vec4 0, 0, 1;
    %assign/vec4 v0x563e30e5dee0_0, 0;
    %end;
    .thread T_17;
    .scope S_0x563e30e96240;
T_18 ;
    %delay 1, 0;
    %load/vec4 v0x563e30e5dee0_0;
    %inv;
    %assign/vec4 v0x563e30e5dee0_0, 0;
    %jmp T_18;
    .thread T_18;
# The file index is used to find the file name in the following table.
:file_names 13;
    "N/A";
    "<interactive>";
    "testbench.v";
    "./enrutamiento.v";
    "./demux_1a2.v";
    "./fifo_cond.v";
    "./flowControl.v";
    "./memoria_cond.v";
    "./flipflop3b.v";
    "./read_Req.v";
    "./write_Req.v";
    "./Mux2a1.v";
    "./probador_enrutamiento.v";
