$date
	Wed Jun 17 16:20:56 2020
$end
$version
	Icarus Verilog
$end
$timescale
	1s
$end
$scope module BUF $end
$var wire 1 ! A $end
$var wire 1 " Y $end
$upscope $end
$scope module BancoPrueba $end
$var wire 5 # write_data [4:0] $end
$var wire 1 $ write $end
$var wire 4 % wr_dir [3:0] $end
$var wire 1 & reset_L $end
$var wire 5 ' read_data_est [4:0] $end
$var wire 5 ( read_data_cond [4:0] $end
$var wire 1 ) read $end
$var wire 4 * rd_dir [3:0] $end
$var wire 1 + clk $end
$scope module conductual $end
$var wire 5 , write_data [4:0] $end
$var wire 4 - wr_dir [3:0] $end
$var wire 1 & reset_L $end
$var wire 4 . rd_dir [3:0] $end
$var wire 1 $ memwrite $end
$var wire 1 ) memread $end
$var wire 1 + clk $end
$var reg 5 / read_data_cond [4:0] $end
$var integer 32 0 i [31:0] $end
$upscope $end
$scope module estructural $end
$var wire 5 1 write_data [4:0] $end
$var wire 4 2 wr_dir [3:0] $end
$var wire 1 & reset_L $end
$var wire 5 3 read_data_est [4:0] $end
$var wire 4 4 rd_dir [3:0] $end
$var wire 1 $ memwrite $end
$var wire 1 ) memread $end
$var wire 1 + clk $end
$var wire 1 5 _292_ $end
$var wire 1 6 _291_ $end
$var wire 1 7 _290_ $end
$var wire 1 8 _289_ $end
$var wire 1 9 _288_ $end
$var wire 1 : _287_ $end
$var wire 1 ; _286_ $end
$var wire 1 < _285_ $end
$var wire 1 = _284_ $end
$var wire 1 > _283_ $end
$var wire 1 ? _282_ $end
$var wire 1 @ _281_ $end
$var wire 1 A _280_ $end
$var wire 1 B _279_ $end
$var wire 1 C _278_ $end
$var wire 1 D _277_ $end
$var wire 1 E _276_ $end
$var wire 1 F _275_ $end
$var wire 1 G _274_ $end
$var wire 1 H _273_ $end
$var wire 1 I _272_ $end
$var wire 1 J _271_ $end
$var wire 1 K _270_ $end
$var wire 1 L _269_ $end
$var wire 1 M _268_ $end
$var wire 1 N _267_ $end
$var wire 1 O _266_ $end
$var wire 1 P _265_ $end
$var wire 1 Q _264_ $end
$var wire 1 R _263_ $end
$var wire 1 S _262_ $end
$var wire 1 T _261_ $end
$var wire 1 U _260_ $end
$var wire 1 V _259_ $end
$var wire 1 W _258_ $end
$var wire 1 X _257_ $end
$var wire 1 Y _256_ $end
$var wire 1 Z _255_ $end
$var wire 1 [ _254_ $end
$var wire 1 \ _253_ $end
$var wire 1 ] _252_ $end
$var wire 1 ^ _251_ $end
$var wire 1 _ _250_ $end
$var wire 1 ` _249_ $end
$var wire 1 a _248_ $end
$var wire 1 b _247_ $end
$var wire 1 c _246_ $end
$var wire 1 d _245_ $end
$var wire 1 e _244_ $end
$var wire 1 f _243_ $end
$var wire 1 g _242_ $end
$var wire 1 h _241_ $end
$var wire 1 i _240_ $end
$var wire 1 j _239_ $end
$var wire 1 k _238_ $end
$var wire 1 l _237_ $end
$var wire 1 m _236_ $end
$var wire 1 n _235_ $end
$var wire 1 o _234_ $end
$var wire 1 p _233_ $end
$var wire 1 q _232_ $end
$var wire 1 r _231_ $end
$var wire 1 s _230_ $end
$var wire 1 t _229_ $end
$var wire 1 u _228_ $end
$var wire 1 v _227_ $end
$var wire 1 w _226_ $end
$var wire 1 x _225_ $end
$var wire 1 y _224_ $end
$var wire 1 z _223_ $end
$var wire 1 { _222_ $end
$var wire 1 | _221_ $end
$var wire 1 } _220_ $end
$var wire 1 ~ _219_ $end
$var wire 1 !" _218_ $end
$var wire 1 "" _217_ $end
$var wire 1 #" _216_ $end
$var wire 1 $" _215_ $end
$var wire 1 %" _214_ $end
$var wire 1 &" _213_ $end
$var wire 1 '" _212_ $end
$var wire 1 (" _211_ $end
$var wire 1 )" _210_ $end
$var wire 1 *" _209_ $end
$var wire 1 +" _208_ $end
$var wire 1 ," _207_ $end
$var wire 1 -" _206_ $end
$var wire 1 ." _205_ $end
$var wire 1 /" _204_ $end
$var wire 1 0" _203_ $end
$var wire 1 1" _202_ $end
$var wire 1 2" _201_ $end
$var wire 1 3" _200_ $end
$var wire 1 4" _199_ $end
$var wire 1 5" _198_ $end
$var wire 1 6" _197_ $end
$var wire 1 7" _196_ $end
$var wire 1 8" _195_ $end
$var wire 1 9" _194_ $end
$var wire 1 :" _193_ $end
$var wire 1 ;" _192_ $end
$var wire 1 <" _191_ $end
$var wire 1 =" _190_ $end
$var wire 1 >" _189_ $end
$var wire 1 ?" _188_ $end
$var wire 1 @" _187_ $end
$var wire 1 A" _186_ $end
$var wire 1 B" _185_ $end
$var wire 1 C" _184_ $end
$var wire 1 D" _183_ $end
$var wire 1 E" _182_ $end
$var wire 1 F" _181_ $end
$var wire 1 G" _180_ $end
$var wire 1 H" _179_ $end
$var wire 1 I" _178_ $end
$var wire 1 J" _177_ $end
$var wire 1 K" _176_ $end
$var wire 1 L" _175_ $end
$var wire 1 M" _174_ $end
$var wire 1 N" _173_ $end
$var wire 1 O" _172_ $end
$var wire 1 P" _171_ $end
$var wire 1 Q" _170_ $end
$var wire 1 R" _169_ $end
$var wire 1 S" _168_ $end
$var wire 1 T" _167_ $end
$var wire 1 U" _166_ $end
$var wire 1 V" _165_ $end
$var wire 1 W" _164_ $end
$var wire 1 X" _163_ $end
$var wire 1 Y" _162_ $end
$var wire 1 Z" _161_ $end
$var wire 1 [" _160_ $end
$var wire 1 \" _159_ $end
$var wire 1 ]" _158_ $end
$var wire 1 ^" _157_ $end
$var wire 1 _" _156_ $end
$var wire 1 `" _155_ $end
$var wire 1 a" _154_ $end
$var wire 1 b" _153_ $end
$var wire 1 c" _152_ $end
$var wire 1 d" _151_ $end
$var wire 1 e" _150_ $end
$var wire 1 f" _149_ $end
$var wire 1 g" _148_ $end
$var wire 1 h" _147_ $end
$var wire 1 i" _146_ $end
$var wire 1 j" _145_ $end
$var wire 1 k" _144_ $end
$var wire 1 l" _143_ $end
$var wire 1 m" _142_ $end
$var wire 1 n" _141_ $end
$var wire 1 o" _140_ $end
$var wire 1 p" _139_ $end
$var wire 1 q" _138_ $end
$var wire 1 r" _137_ $end
$var wire 1 s" _136_ $end
$var wire 1 t" _135_ $end
$var wire 1 u" _134_ $end
$var wire 1 v" _133_ $end
$var wire 1 w" _132_ $end
$var wire 1 x" _131_ $end
$var wire 1 y" _130_ $end
$var wire 1 z" _129_ $end
$var wire 1 {" _128_ $end
$var wire 1 |" _127_ $end
$var wire 1 }" _126_ $end
$var wire 1 ~" _125_ $end
$var wire 1 !# _124_ $end
$var wire 1 "# _123_ $end
$var wire 1 ## _122_ $end
$var wire 1 $# _121_ $end
$var wire 1 %# _120_ $end
$var wire 1 &# _119_ $end
$var wire 1 '# _118_ $end
$var wire 1 (# _117_ $end
$var wire 1 )# _116_ $end
$var wire 1 *# _115_ $end
$var wire 1 +# _114_ $end
$var wire 1 ,# _113_ $end
$var wire 1 -# _112_ $end
$var wire 1 .# _111_ $end
$var wire 1 /# _110_ $end
$var wire 1 0# _109_ $end
$var wire 1 1# _108_ $end
$var wire 1 2# _107_ $end
$var wire 1 3# _106_ $end
$var wire 1 4# _105_ $end
$var wire 1 5# _104_ $end
$var wire 1 6# _103_ $end
$var wire 1 7# _102_ $end
$var wire 1 8# _101_ $end
$var wire 1 9# _100_ $end
$var wire 1 :# _099_ $end
$var wire 1 ;# _098_ $end
$var wire 1 <# _097_ $end
$var wire 1 =# _096_ $end
$var wire 1 ># _095_ $end
$var wire 1 ?# _094_ $end
$var wire 1 @# _093_ $end
$var wire 1 A# _092_ $end
$var wire 1 B# _091_ $end
$var wire 1 C# _090_ $end
$var wire 1 D# _089_ $end
$var wire 1 E# _088_ $end
$var wire 1 F# _087_ $end
$var wire 1 G# _086_ $end
$var wire 1 H# _085_ $end
$var wire 1 I# _084_ $end
$var wire 1 J# _083_ $end
$var wire 1 K# _082_ $end
$var wire 1 L# _081_ $end
$var wire 1 M# _080_ $end
$var wire 1 N# _079_ $end
$var wire 1 O# _078_ $end
$var wire 1 P# _077_ $end
$var wire 1 Q# _076_ $end
$var wire 1 R# _075_ $end
$var wire 1 S# _074_ $end
$var wire 1 T# _073_ $end
$var wire 1 U# _072_ $end
$var wire 1 V# _071_ $end
$var wire 1 W# _070_ $end
$var wire 1 X# _069_ $end
$var wire 1 Y# _068_ $end
$var wire 1 Z# _067_ $end
$var wire 1 [# _066_ $end
$var wire 1 \# _065_ $end
$var wire 1 ]# _064_ $end
$var wire 1 ^# _063_ $end
$var wire 1 _# _062_ $end
$var wire 1 `# _061_ $end
$var wire 1 a# _060_ $end
$var wire 1 b# _059_ $end
$var wire 1 c# _058_ $end
$var wire 1 d# _057_ $end
$var wire 1 e# _056_ $end
$var wire 1 f# _055_ $end
$var wire 1 g# _054_ $end
$var wire 1 h# _053_ $end
$var wire 1 i# _052_ $end
$var wire 1 j# _051_ $end
$var wire 1 k# _050_ $end
$var wire 1 l# _049_ $end
$var wire 1 m# _048_ $end
$var wire 1 n# _047_ $end
$var wire 1 o# _046_ $end
$var wire 1 p# _045_ $end
$var wire 1 q# _044_ $end
$var wire 1 r# _043_ $end
$var wire 1 s# _042_ $end
$var wire 1 t# _041_ $end
$var wire 1 u# _040_ $end
$var wire 1 v# _039_ $end
$var wire 1 w# _038_ $end
$var wire 1 x# _037_ $end
$var wire 1 y# _036_ $end
$var wire 1 z# _035_ $end
$var wire 1 {# _034_ $end
$var wire 1 |# _033_ $end
$var wire 1 }# _032_ $end
$var wire 1 ~# _031_ $end
$var wire 1 !$ _030_ $end
$var wire 1 "$ _029_ $end
$var wire 1 #$ _028_ $end
$var wire 1 $$ _027_ $end
$var wire 1 %$ _026_ $end
$var wire 1 &$ _025_ $end
$var wire 1 '$ _024_ $end
$var wire 1 ($ _023_ $end
$var wire 1 )$ _022_ $end
$var wire 1 *$ _021_ $end
$var wire 1 +$ _020_ $end
$var wire 1 ,$ _019_ $end
$var wire 1 -$ _018_ $end
$var wire 1 .$ _017_ $end
$var wire 1 /$ _016_ $end
$var wire 1 0$ _015_ $end
$var wire 1 1$ _014_ $end
$var wire 1 2$ _013_ $end
$var wire 1 3$ _012_ $end
$var wire 1 4$ _011_ $end
$var wire 1 5$ _010_ $end
$var wire 1 6$ _009_ $end
$var wire 5 7$ _008_ [4:0] $end
$var wire 5 8$ _007_ [4:0] $end
$var wire 5 9$ _006_ [4:0] $end
$var wire 5 :$ _005_ [4:0] $end
$var wire 5 ;$ _004_ [4:0] $end
$var wire 5 <$ _003_ [4:0] $end
$var wire 5 =$ _002_ [4:0] $end
$var wire 5 >$ _001_ [4:0] $end
$var wire 5 ?$ _000_ [4:0] $end
$var wire 5 @$ \MEMORY[7] [4:0] $end
$var wire 5 A$ \MEMORY[6] [4:0] $end
$var wire 5 B$ \MEMORY[5] [4:0] $end
$var wire 5 C$ \MEMORY[4] [4:0] $end
$var wire 5 D$ \MEMORY[3] [4:0] $end
$var wire 5 E$ \MEMORY[2] [4:0] $end
$var wire 5 F$ \MEMORY[1] [4:0] $end
$var wire 5 G$ \MEMORY[0] [4:0] $end
$scope module _293_ $end
$var wire 1 b Y $end
$var wire 1 d B $end
$var wire 1 c A $end
$upscope $end
$scope module _294_ $end
$var wire 1 a Y $end
$var wire 1 W" B $end
$var wire 1 y A $end
$upscope $end
$scope module _295_ $end
$var wire 1 ` Y $end
$var wire 1 A" B $end
$var wire 1 !" A $end
$upscope $end
$scope module _296_ $end
$var wire 1 ` A $end
$var wire 1 a B $end
$var wire 1 _ Y $end
$upscope $end
$scope module _297_ $end
$var wire 1 _ A $end
$var wire 1 b B $end
$var wire 1 ^ Y $end
$upscope $end
$scope module _298_ $end
$var wire 1 ] Y $end
$var wire 1 j# B $end
$var wire 1 3" A $end
$upscope $end
$scope module _299_ $end
$var wire 1 \ Y $end
$var wire 1 %# B $end
$var wire 1 *" A $end
$upscope $end
$scope module _300_ $end
$var wire 1 \ A $end
$var wire 1 ] B $end
$var wire 1 [ Y $end
$upscope $end
$scope module _301_ $end
$var wire 1 Z Y $end
$var wire 1 S# B $end
$var wire 1 { A $end
$upscope $end
$scope module _302_ $end
$var wire 1 H$ A $end
$var wire 1 Y Y $end
$upscope $end
$scope module _303_ $end
$var wire 1 Y B $end
$var wire 1 X Y $end
$var wire 1 ." A $end
$upscope $end
$scope module _304_ $end
$var wire 1 X A $end
$var wire 1 Z B $end
$var wire 1 W Y $end
$upscope $end
$scope module _305_ $end
$var wire 1 W A $end
$var wire 1 [ B $end
$var wire 1 V Y $end
$upscope $end
$scope module _306_ $end
$var wire 1 V A $end
$var wire 1 ^ B $end
$var wire 1 U Y $end
$upscope $end
$scope module _307_ $end
$var wire 1 U A $end
$var wire 1 I$ Y $end
$var wire 1 6" B $end
$upscope $end
$scope module _308_ $end
$var wire 1 T Y $end
$var wire 1 f# B $end
$var wire 1 3" A $end
$upscope $end
$scope module _309_ $end
$var wire 1 J$ A $end
$var wire 1 S Y $end
$upscope $end
$scope module _310_ $end
$var wire 1 S B $end
$var wire 1 R Y $end
$var wire 1 ." A $end
$upscope $end
$scope module _311_ $end
$var wire 1 R A $end
$var wire 1 T B $end
$var wire 1 Q Y $end
$upscope $end
$scope module _312_ $end
$var wire 1 P Y $end
$var wire 1 !# B $end
$var wire 1 *" A $end
$upscope $end
$scope module _313_ $end
$var wire 1 O Y $end
$var wire 1 8# B $end
$var wire 1 '" A $end
$upscope $end
$scope module _314_ $end
$var wire 1 O A $end
$var wire 1 P B $end
$var wire 1 N Y $end
$upscope $end
$scope module _315_ $end
$var wire 1 N A $end
$var wire 1 Q B $end
$var wire 1 M Y $end
$upscope $end
$scope module _316_ $end
$var wire 1 L Y $end
$var wire 1 i" B $end
$var wire 1 #" A $end
$upscope $end
$scope module _317_ $end
$var wire 1 K Y $end
$var wire 1 S" B $end
$var wire 1 y A $end
$upscope $end
$scope module _318_ $end
$var wire 1 K A $end
$var wire 1 L B $end
$var wire 1 J Y $end
$upscope $end
$scope module _319_ $end
$var wire 1 I Y $end
$var wire 1 O# B $end
$var wire 1 { A $end
$upscope $end
$scope module _320_ $end
$var wire 1 H Y $end
$var wire 1 =" B $end
$var wire 1 !" A $end
$upscope $end
$scope module _321_ $end
$var wire 1 H A $end
$var wire 1 I B $end
$var wire 1 G Y $end
$upscope $end
$scope module _322_ $end
$var wire 1 G A $end
$var wire 1 J B $end
$var wire 1 F Y $end
$upscope $end
$scope module _323_ $end
$var wire 1 F A $end
$var wire 1 M B $end
$var wire 1 E Y $end
$upscope $end
$scope module _324_ $end
$var wire 1 E A $end
$var wire 1 K$ Y $end
$var wire 1 6" B $end
$upscope $end
$scope module _325_ $end
$var wire 1 D Y $end
$var wire 1 b# B $end
$var wire 1 3" A $end
$upscope $end
$scope module _326_ $end
$var wire 1 L$ A $end
$var wire 1 C Y $end
$upscope $end
$scope module _327_ $end
$var wire 1 C B $end
$var wire 1 B Y $end
$var wire 1 ." A $end
$upscope $end
$scope module _328_ $end
$var wire 1 B A $end
$var wire 1 D B $end
$var wire 1 A Y $end
$upscope $end
$scope module _329_ $end
$var wire 1 @ Y $end
$var wire 1 {" B $end
$var wire 1 *" A $end
$upscope $end
$scope module _330_ $end
$var wire 1 ? Y $end
$var wire 1 O" B $end
$var wire 1 y A $end
$upscope $end
$scope module _331_ $end
$var wire 1 ? A $end
$var wire 1 @ B $end
$var wire 1 > Y $end
$upscope $end
$scope module _332_ $end
$var wire 1 > A $end
$var wire 1 A B $end
$var wire 1 = Y $end
$upscope $end
$scope module _333_ $end
$var wire 1 < Y $end
$var wire 1 e" B $end
$var wire 1 #" A $end
$upscope $end
$scope module _334_ $end
$var wire 1 ; Y $end
$var wire 1 9" B $end
$var wire 1 !" A $end
$upscope $end
$scope module _335_ $end
$var wire 1 ; A $end
$var wire 1 < B $end
$var wire 1 : Y $end
$upscope $end
$scope module _336_ $end
$var wire 1 9 Y $end
$var wire 1 K# B $end
$var wire 1 { A $end
$upscope $end
$scope module _337_ $end
$var wire 1 8 Y $end
$var wire 1 4# B $end
$var wire 1 '" A $end
$upscope $end
$scope module _338_ $end
$var wire 1 8 A $end
$var wire 1 9 B $end
$var wire 1 7 Y $end
$upscope $end
$scope module _339_ $end
$var wire 1 7 A $end
$var wire 1 : B $end
$var wire 1 6 Y $end
$upscope $end
$scope module _340_ $end
$var wire 1 6 A $end
$var wire 1 = B $end
$var wire 1 5 Y $end
$upscope $end
$scope module _341_ $end
$var wire 1 5 A $end
$var wire 1 M$ Y $end
$var wire 1 6" B $end
$upscope $end
$scope module _342_ $end
$var wire 1 N$ A $end
$var wire 1 6$ Y $end
$upscope $end
$scope module _343_ $end
$var wire 1 O$ A $end
$var wire 1 5$ Y $end
$upscope $end
$scope module _344_ $end
$var wire 1 5$ A $end
$var wire 1 6$ B $end
$var wire 1 4$ Y $end
$upscope $end
$scope module _345_ $end
$var wire 1 4$ A $end
$var wire 1 3$ Y $end
$upscope $end
$scope module _346_ $end
$var wire 1 P$ A $end
$var wire 1 2$ Y $end
$upscope $end
$scope module _347_ $end
$var wire 1 1$ Y $end
$var wire 1 $ A $end
$upscope $end
$scope module _348_ $end
$var wire 1 1$ A $end
$var wire 1 2$ B $end
$var wire 1 0$ Y $end
$upscope $end
$scope module _349_ $end
$var wire 1 0$ A $end
$var wire 1 /$ Y $end
$upscope $end
$scope module _350_ $end
$var wire 1 /$ A $end
$var wire 1 3$ B $end
$var wire 1 .$ Y $end
$upscope $end
$scope module _351_ $end
$var wire 1 .$ A $end
$var wire 1 Q$ B $end
$var wire 1 -$ Y $end
$upscope $end
$scope module _352_ $end
$var wire 1 R$ A $end
$var wire 1 ,$ Y $end
$upscope $end
$scope module _353_ $end
$var wire 1 .$ A $end
$var wire 1 ,$ B $end
$var wire 1 +$ Y $end
$upscope $end
$scope module _354_ $end
$var wire 1 +$ A $end
$var wire 1 *$ Y $end
$var wire 1 & B $end
$upscope $end
$scope module _355_ $end
$var wire 1 *$ A $end
$var wire 1 -$ B $end
$var wire 1 S$ Y $end
$upscope $end
$scope module _356_ $end
$var wire 1 .$ A $end
$var wire 1 T$ B $end
$var wire 1 )$ Y $end
$upscope $end
$scope module _357_ $end
$var wire 1 U$ A $end
$var wire 1 ($ Y $end
$upscope $end
$scope module _358_ $end
$var wire 1 .$ A $end
$var wire 1 ($ B $end
$var wire 1 '$ Y $end
$upscope $end
$scope module _359_ $end
$var wire 1 '$ A $end
$var wire 1 &$ Y $end
$var wire 1 & B $end
$upscope $end
$scope module _360_ $end
$var wire 1 &$ A $end
$var wire 1 )$ B $end
$var wire 1 V$ Y $end
$upscope $end
$scope module _361_ $end
$var wire 1 .$ A $end
$var wire 1 W$ B $end
$var wire 1 %$ Y $end
$upscope $end
$scope module _362_ $end
$var wire 1 X$ A $end
$var wire 1 $$ Y $end
$upscope $end
$scope module _363_ $end
$var wire 1 .$ A $end
$var wire 1 $$ B $end
$var wire 1 #$ Y $end
$upscope $end
$scope module _364_ $end
$var wire 1 #$ A $end
$var wire 1 "$ Y $end
$var wire 1 & B $end
$upscope $end
$scope module _365_ $end
$var wire 1 "$ A $end
$var wire 1 %$ B $end
$var wire 1 Y$ Y $end
$upscope $end
$scope module _366_ $end
$var wire 1 .$ A $end
$var wire 1 Z$ B $end
$var wire 1 !$ Y $end
$upscope $end
$scope module _367_ $end
$var wire 1 [$ A $end
$var wire 1 ~# Y $end
$upscope $end
$scope module _368_ $end
$var wire 1 .$ A $end
$var wire 1 ~# B $end
$var wire 1 }# Y $end
$upscope $end
$scope module _369_ $end
$var wire 1 }# A $end
$var wire 1 |# Y $end
$var wire 1 & B $end
$upscope $end
$scope module _370_ $end
$var wire 1 |# A $end
$var wire 1 !$ B $end
$var wire 1 \$ Y $end
$upscope $end
$scope module _371_ $end
$var wire 1 .$ A $end
$var wire 1 ]$ B $end
$var wire 1 {# Y $end
$upscope $end
$scope module _372_ $end
$var wire 1 ^$ A $end
$var wire 1 z# Y $end
$upscope $end
$scope module _373_ $end
$var wire 1 .$ A $end
$var wire 1 z# B $end
$var wire 1 y# Y $end
$upscope $end
$scope module _374_ $end
$var wire 1 y# A $end
$var wire 1 x# Y $end
$var wire 1 & B $end
$upscope $end
$scope module _375_ $end
$var wire 1 x# A $end
$var wire 1 {# B $end
$var wire 1 _$ Y $end
$upscope $end
$scope module _376_ $end
$var wire 1 w# Y $end
$var wire 1 & A $end
$upscope $end
$scope module _377_ $end
$var wire 1 5$ A $end
$var wire 1 `$ B $end
$var wire 1 v# Y $end
$upscope $end
$scope module _378_ $end
$var wire 1 v# A $end
$var wire 1 0$ B $end
$var wire 1 u# Y $end
$upscope $end
$scope module _379_ $end
$var wire 1 u# A $end
$var wire 1 ,$ B $end
$var wire 1 t# Y $end
$upscope $end
$scope module _380_ $end
$var wire 1 a$ A $end
$var wire 1 s# Y $end
$upscope $end
$scope module _381_ $end
$var wire 1 u# A $end
$var wire 1 r# Y $end
$upscope $end
$scope module _382_ $end
$var wire 1 r# A $end
$var wire 1 s# B $end
$var wire 1 q# Y $end
$upscope $end
$scope module _383_ $end
$var wire 1 q# A $end
$var wire 1 t# B $end
$var wire 1 p# Y $end
$upscope $end
$scope module _384_ $end
$var wire 1 p# A $end
$var wire 1 w# B $end
$var wire 1 b$ Y $end
$upscope $end
$scope module _385_ $end
$var wire 1 u# A $end
$var wire 1 ($ B $end
$var wire 1 o# Y $end
$upscope $end
$scope module _386_ $end
$var wire 1 c$ A $end
$var wire 1 n# Y $end
$upscope $end
$scope module _387_ $end
$var wire 1 r# A $end
$var wire 1 n# B $end
$var wire 1 m# Y $end
$upscope $end
$scope module _388_ $end
$var wire 1 m# A $end
$var wire 1 o# B $end
$var wire 1 l# Y $end
$upscope $end
$scope module _389_ $end
$var wire 1 l# A $end
$var wire 1 w# B $end
$var wire 1 d$ Y $end
$upscope $end
$scope module _390_ $end
$var wire 1 u# A $end
$var wire 1 $$ B $end
$var wire 1 k# Y $end
$upscope $end
$scope module _391_ $end
$var wire 1 e$ A $end
$var wire 1 j# Y $end
$upscope $end
$scope module _392_ $end
$var wire 1 r# A $end
$var wire 1 j# B $end
$var wire 1 i# Y $end
$upscope $end
$scope module _393_ $end
$var wire 1 i# A $end
$var wire 1 k# B $end
$var wire 1 h# Y $end
$upscope $end
$scope module _394_ $end
$var wire 1 h# A $end
$var wire 1 w# B $end
$var wire 1 f$ Y $end
$upscope $end
$scope module _395_ $end
$var wire 1 u# A $end
$var wire 1 ~# B $end
$var wire 1 g# Y $end
$upscope $end
$scope module _396_ $end
$var wire 1 g$ A $end
$var wire 1 f# Y $end
$upscope $end
$scope module _397_ $end
$var wire 1 r# A $end
$var wire 1 f# B $end
$var wire 1 e# Y $end
$upscope $end
$scope module _398_ $end
$var wire 1 e# A $end
$var wire 1 g# B $end
$var wire 1 d# Y $end
$upscope $end
$scope module _399_ $end
$var wire 1 d# A $end
$var wire 1 w# B $end
$var wire 1 h$ Y $end
$upscope $end
$scope module _400_ $end
$var wire 1 u# A $end
$var wire 1 z# B $end
$var wire 1 c# Y $end
$upscope $end
$scope module _401_ $end
$var wire 1 i$ A $end
$var wire 1 b# Y $end
$upscope $end
$scope module _402_ $end
$var wire 1 r# A $end
$var wire 1 b# B $end
$var wire 1 a# Y $end
$upscope $end
$scope module _403_ $end
$var wire 1 a# A $end
$var wire 1 c# B $end
$var wire 1 `# Y $end
$upscope $end
$scope module _404_ $end
$var wire 1 `# A $end
$var wire 1 w# B $end
$var wire 1 j$ Y $end
$upscope $end
$scope module _405_ $end
$var wire 1 k$ A $end
$var wire 1 6$ B $end
$var wire 1 _# Y $end
$upscope $end
$scope module _406_ $end
$var wire 1 _# A $end
$var wire 1 0$ B $end
$var wire 1 ^# Y $end
$upscope $end
$scope module _407_ $end
$var wire 1 ^# A $end
$var wire 1 ,$ B $end
$var wire 1 ]# Y $end
$upscope $end
$scope module _408_ $end
$var wire 1 l$ A $end
$var wire 1 \# Y $end
$upscope $end
$scope module _409_ $end
$var wire 1 ^# A $end
$var wire 1 [# Y $end
$upscope $end
$scope module _410_ $end
$var wire 1 [# A $end
$var wire 1 \# B $end
$var wire 1 Z# Y $end
$upscope $end
$scope module _411_ $end
$var wire 1 Z# A $end
$var wire 1 ]# B $end
$var wire 1 Y# Y $end
$upscope $end
$scope module _412_ $end
$var wire 1 Y# A $end
$var wire 1 w# B $end
$var wire 1 m$ Y $end
$upscope $end
$scope module _413_ $end
$var wire 1 ^# A $end
$var wire 1 ($ B $end
$var wire 1 X# Y $end
$upscope $end
$scope module _414_ $end
$var wire 1 n$ A $end
$var wire 1 W# Y $end
$upscope $end
$scope module _415_ $end
$var wire 1 [# A $end
$var wire 1 W# B $end
$var wire 1 V# Y $end
$upscope $end
$scope module _416_ $end
$var wire 1 V# A $end
$var wire 1 X# B $end
$var wire 1 U# Y $end
$upscope $end
$scope module _417_ $end
$var wire 1 U# A $end
$var wire 1 w# B $end
$var wire 1 o$ Y $end
$upscope $end
$scope module _418_ $end
$var wire 1 ^# A $end
$var wire 1 $$ B $end
$var wire 1 T# Y $end
$upscope $end
$scope module _419_ $end
$var wire 1 p$ A $end
$var wire 1 S# Y $end
$upscope $end
$scope module _420_ $end
$var wire 1 [# A $end
$var wire 1 S# B $end
$var wire 1 R# Y $end
$upscope $end
$scope module _421_ $end
$var wire 1 R# A $end
$var wire 1 T# B $end
$var wire 1 Q# Y $end
$upscope $end
$scope module _422_ $end
$var wire 1 Q# A $end
$var wire 1 w# B $end
$var wire 1 q$ Y $end
$upscope $end
$scope module _423_ $end
$var wire 1 ^# A $end
$var wire 1 ~# B $end
$var wire 1 P# Y $end
$upscope $end
$scope module _424_ $end
$var wire 1 r$ A $end
$var wire 1 O# Y $end
$upscope $end
$scope module _425_ $end
$var wire 1 [# A $end
$var wire 1 O# B $end
$var wire 1 N# Y $end
$upscope $end
$scope module _426_ $end
$var wire 1 N# A $end
$var wire 1 P# B $end
$var wire 1 M# Y $end
$upscope $end
$scope module _427_ $end
$var wire 1 M# A $end
$var wire 1 w# B $end
$var wire 1 s$ Y $end
$upscope $end
$scope module _428_ $end
$var wire 1 ^# A $end
$var wire 1 z# B $end
$var wire 1 L# Y $end
$upscope $end
$scope module _429_ $end
$var wire 1 t$ A $end
$var wire 1 K# Y $end
$upscope $end
$scope module _430_ $end
$var wire 1 [# A $end
$var wire 1 K# B $end
$var wire 1 J# Y $end
$upscope $end
$scope module _431_ $end
$var wire 1 J# A $end
$var wire 1 L# B $end
$var wire 1 I# Y $end
$upscope $end
$scope module _432_ $end
$var wire 1 I# A $end
$var wire 1 w# B $end
$var wire 1 u$ Y $end
$upscope $end
$scope module _433_ $end
$var wire 1 v$ A $end
$var wire 1 w$ B $end
$var wire 1 H# Y $end
$upscope $end
$scope module _434_ $end
$var wire 1 H# A $end
$var wire 1 0$ B $end
$var wire 1 G# Y $end
$upscope $end
$scope module _435_ $end
$var wire 1 G# A $end
$var wire 1 ,$ B $end
$var wire 1 F# Y $end
$upscope $end
$scope module _436_ $end
$var wire 1 x$ A $end
$var wire 1 E# Y $end
$upscope $end
$scope module _437_ $end
$var wire 1 G# A $end
$var wire 1 D# Y $end
$upscope $end
$scope module _438_ $end
$var wire 1 D# A $end
$var wire 1 E# B $end
$var wire 1 C# Y $end
$upscope $end
$scope module _439_ $end
$var wire 1 C# A $end
$var wire 1 F# B $end
$var wire 1 B# Y $end
$upscope $end
$scope module _440_ $end
$var wire 1 B# A $end
$var wire 1 w# B $end
$var wire 1 y$ Y $end
$upscope $end
$scope module _441_ $end
$var wire 1 G# A $end
$var wire 1 ($ B $end
$var wire 1 A# Y $end
$upscope $end
$scope module _442_ $end
$var wire 1 z$ A $end
$var wire 1 @# Y $end
$upscope $end
$scope module _443_ $end
$var wire 1 D# A $end
$var wire 1 @# B $end
$var wire 1 ?# Y $end
$upscope $end
$scope module _444_ $end
$var wire 1 ?# A $end
$var wire 1 A# B $end
$var wire 1 ># Y $end
$upscope $end
$scope module _445_ $end
$var wire 1 ># A $end
$var wire 1 w# B $end
$var wire 1 {$ Y $end
$upscope $end
$scope module _446_ $end
$var wire 1 G# A $end
$var wire 1 $$ B $end
$var wire 1 =# Y $end
$upscope $end
$scope module _447_ $end
$var wire 1 |$ A $end
$var wire 1 <# Y $end
$upscope $end
$scope module _448_ $end
$var wire 1 D# A $end
$var wire 1 <# B $end
$var wire 1 ;# Y $end
$upscope $end
$scope module _449_ $end
$var wire 1 ;# A $end
$var wire 1 =# B $end
$var wire 1 :# Y $end
$upscope $end
$scope module _450_ $end
$var wire 1 :# A $end
$var wire 1 w# B $end
$var wire 1 }$ Y $end
$upscope $end
$scope module _451_ $end
$var wire 1 G# A $end
$var wire 1 ~# B $end
$var wire 1 9# Y $end
$upscope $end
$scope module _452_ $end
$var wire 1 ~$ A $end
$var wire 1 8# Y $end
$upscope $end
$scope module _453_ $end
$var wire 1 D# A $end
$var wire 1 8# B $end
$var wire 1 7# Y $end
$upscope $end
$scope module _454_ $end
$var wire 1 7# A $end
$var wire 1 9# B $end
$var wire 1 6# Y $end
$upscope $end
$scope module _455_ $end
$var wire 1 6# A $end
$var wire 1 w# B $end
$var wire 1 !% Y $end
$upscope $end
$scope module _456_ $end
$var wire 1 G# A $end
$var wire 1 z# B $end
$var wire 1 5# Y $end
$upscope $end
$scope module _457_ $end
$var wire 1 "% A $end
$var wire 1 4# Y $end
$upscope $end
$scope module _458_ $end
$var wire 1 D# A $end
$var wire 1 4# B $end
$var wire 1 3# Y $end
$upscope $end
$scope module _459_ $end
$var wire 1 3# A $end
$var wire 1 5# B $end
$var wire 1 2# Y $end
$upscope $end
$scope module _460_ $end
$var wire 1 2# A $end
$var wire 1 w# B $end
$var wire 1 #% Y $end
$upscope $end
$scope module _461_ $end
$var wire 1 1$ A $end
$var wire 1 $% B $end
$var wire 1 1# Y $end
$upscope $end
$scope module _462_ $end
$var wire 1 1# A $end
$var wire 1 4$ B $end
$var wire 1 0# Y $end
$upscope $end
$scope module _463_ $end
$var wire 1 0# A $end
$var wire 1 ,$ B $end
$var wire 1 /# Y $end
$upscope $end
$scope module _464_ $end
$var wire 1 %% A $end
$var wire 1 .# Y $end
$upscope $end
$scope module _465_ $end
$var wire 1 0# A $end
$var wire 1 -# Y $end
$upscope $end
$scope module _466_ $end
$var wire 1 -# A $end
$var wire 1 .# B $end
$var wire 1 ,# Y $end
$upscope $end
$scope module _467_ $end
$var wire 1 ,# A $end
$var wire 1 /# B $end
$var wire 1 +# Y $end
$upscope $end
$scope module _468_ $end
$var wire 1 +# A $end
$var wire 1 w# B $end
$var wire 1 &% Y $end
$upscope $end
$scope module _469_ $end
$var wire 1 0# A $end
$var wire 1 ($ B $end
$var wire 1 *# Y $end
$upscope $end
$scope module _470_ $end
$var wire 1 '% A $end
$var wire 1 )# Y $end
$upscope $end
$scope module _471_ $end
$var wire 1 -# A $end
$var wire 1 )# B $end
$var wire 1 (# Y $end
$upscope $end
$scope module _472_ $end
$var wire 1 (# A $end
$var wire 1 *# B $end
$var wire 1 '# Y $end
$upscope $end
$scope module _473_ $end
$var wire 1 '# A $end
$var wire 1 w# B $end
$var wire 1 (% Y $end
$upscope $end
$scope module _474_ $end
$var wire 1 0# A $end
$var wire 1 $$ B $end
$var wire 1 &# Y $end
$upscope $end
$scope module _475_ $end
$var wire 1 )% A $end
$var wire 1 %# Y $end
$upscope $end
$scope module _476_ $end
$var wire 1 -# A $end
$var wire 1 %# B $end
$var wire 1 $# Y $end
$upscope $end
$scope module _477_ $end
$var wire 1 $# A $end
$var wire 1 &# B $end
$var wire 1 ## Y $end
$upscope $end
$scope module _478_ $end
$var wire 1 ## A $end
$var wire 1 w# B $end
$var wire 1 *% Y $end
$upscope $end
$scope module _479_ $end
$var wire 1 0# A $end
$var wire 1 ~# B $end
$var wire 1 "# Y $end
$upscope $end
$scope module _480_ $end
$var wire 1 +% A $end
$var wire 1 !# Y $end
$upscope $end
$scope module _481_ $end
$var wire 1 -# A $end
$var wire 1 !# B $end
$var wire 1 ~" Y $end
$upscope $end
$scope module _482_ $end
$var wire 1 ~" A $end
$var wire 1 "# B $end
$var wire 1 }" Y $end
$upscope $end
$scope module _483_ $end
$var wire 1 }" A $end
$var wire 1 w# B $end
$var wire 1 ,% Y $end
$upscope $end
$scope module _484_ $end
$var wire 1 0# A $end
$var wire 1 z# B $end
$var wire 1 |" Y $end
$upscope $end
$scope module _485_ $end
$var wire 1 -% A $end
$var wire 1 {" Y $end
$upscope $end
$scope module _486_ $end
$var wire 1 -# A $end
$var wire 1 {" B $end
$var wire 1 z" Y $end
$upscope $end
$scope module _487_ $end
$var wire 1 z" A $end
$var wire 1 |" B $end
$var wire 1 y" Y $end
$upscope $end
$scope module _488_ $end
$var wire 1 y" A $end
$var wire 1 w# B $end
$var wire 1 .% Y $end
$upscope $end
$scope module _489_ $end
$var wire 1 1# A $end
$var wire 1 v# B $end
$var wire 1 x" Y $end
$upscope $end
$scope module _490_ $end
$var wire 1 x" A $end
$var wire 1 ,$ B $end
$var wire 1 w" Y $end
$upscope $end
$scope module _491_ $end
$var wire 1 /% A $end
$var wire 1 v" Y $end
$upscope $end
$scope module _492_ $end
$var wire 1 x" A $end
$var wire 1 u" Y $end
$upscope $end
$scope module _493_ $end
$var wire 1 u" A $end
$var wire 1 v" B $end
$var wire 1 t" Y $end
$upscope $end
$scope module _494_ $end
$var wire 1 t" A $end
$var wire 1 w" B $end
$var wire 1 s" Y $end
$upscope $end
$scope module _495_ $end
$var wire 1 s" A $end
$var wire 1 w# B $end
$var wire 1 0% Y $end
$upscope $end
$scope module _496_ $end
$var wire 1 x" A $end
$var wire 1 ($ B $end
$var wire 1 r" Y $end
$upscope $end
$scope module _497_ $end
$var wire 1 1% A $end
$var wire 1 q" Y $end
$upscope $end
$scope module _498_ $end
$var wire 1 u" A $end
$var wire 1 q" B $end
$var wire 1 p" Y $end
$upscope $end
$scope module _499_ $end
$var wire 1 p" A $end
$var wire 1 r" B $end
$var wire 1 o" Y $end
$upscope $end
$scope module _500_ $end
$var wire 1 o" A $end
$var wire 1 w# B $end
$var wire 1 2% Y $end
$upscope $end
$scope module _501_ $end
$var wire 1 x" A $end
$var wire 1 $$ B $end
$var wire 1 n" Y $end
$upscope $end
$scope module _502_ $end
$var wire 1 3% A $end
$var wire 1 m" Y $end
$upscope $end
$scope module _503_ $end
$var wire 1 u" A $end
$var wire 1 m" B $end
$var wire 1 l" Y $end
$upscope $end
$scope module _504_ $end
$var wire 1 l" A $end
$var wire 1 n" B $end
$var wire 1 k" Y $end
$upscope $end
$scope module _505_ $end
$var wire 1 k" A $end
$var wire 1 w# B $end
$var wire 1 4% Y $end
$upscope $end
$scope module _506_ $end
$var wire 1 x" A $end
$var wire 1 ~# B $end
$var wire 1 j" Y $end
$upscope $end
$scope module _507_ $end
$var wire 1 5% A $end
$var wire 1 i" Y $end
$upscope $end
$scope module _508_ $end
$var wire 1 u" A $end
$var wire 1 i" B $end
$var wire 1 h" Y $end
$upscope $end
$scope module _509_ $end
$var wire 1 h" A $end
$var wire 1 j" B $end
$var wire 1 g" Y $end
$upscope $end
$scope module _510_ $end
$var wire 1 g" A $end
$var wire 1 w# B $end
$var wire 1 6% Y $end
$upscope $end
$scope module _511_ $end
$var wire 1 x" A $end
$var wire 1 z# B $end
$var wire 1 f" Y $end
$upscope $end
$scope module _512_ $end
$var wire 1 7% A $end
$var wire 1 e" Y $end
$upscope $end
$scope module _513_ $end
$var wire 1 u" A $end
$var wire 1 e" B $end
$var wire 1 d" Y $end
$upscope $end
$scope module _514_ $end
$var wire 1 d" A $end
$var wire 1 f" B $end
$var wire 1 c" Y $end
$upscope $end
$scope module _515_ $end
$var wire 1 c" A $end
$var wire 1 w# B $end
$var wire 1 8% Y $end
$upscope $end
$scope module _516_ $end
$var wire 1 1# A $end
$var wire 1 _# B $end
$var wire 1 b" Y $end
$upscope $end
$scope module _517_ $end
$var wire 1 b" A $end
$var wire 1 ,$ B $end
$var wire 1 a" Y $end
$upscope $end
$scope module _518_ $end
$var wire 1 9% A $end
$var wire 1 `" Y $end
$upscope $end
$scope module _519_ $end
$var wire 1 b" A $end
$var wire 1 _" Y $end
$upscope $end
$scope module _520_ $end
$var wire 1 _" A $end
$var wire 1 `" B $end
$var wire 1 ^" Y $end
$upscope $end
$scope module _521_ $end
$var wire 1 ^" A $end
$var wire 1 a" B $end
$var wire 1 ]" Y $end
$upscope $end
$scope module _522_ $end
$var wire 1 ]" A $end
$var wire 1 w# B $end
$var wire 1 :% Y $end
$upscope $end
$scope module _523_ $end
$var wire 1 b" A $end
$var wire 1 ($ B $end
$var wire 1 \" Y $end
$upscope $end
$scope module _524_ $end
$var wire 1 ;% A $end
$var wire 1 [" Y $end
$upscope $end
$scope module _525_ $end
$var wire 1 _" A $end
$var wire 1 [" B $end
$var wire 1 Z" Y $end
$upscope $end
$scope module _526_ $end
$var wire 1 Z" A $end
$var wire 1 \" B $end
$var wire 1 Y" Y $end
$upscope $end
$scope module _527_ $end
$var wire 1 Y" A $end
$var wire 1 w# B $end
$var wire 1 <% Y $end
$upscope $end
$scope module _528_ $end
$var wire 1 b" A $end
$var wire 1 $$ B $end
$var wire 1 X" Y $end
$upscope $end
$scope module _529_ $end
$var wire 1 =% A $end
$var wire 1 W" Y $end
$upscope $end
$scope module _530_ $end
$var wire 1 _" A $end
$var wire 1 W" B $end
$var wire 1 V" Y $end
$upscope $end
$scope module _531_ $end
$var wire 1 V" A $end
$var wire 1 X" B $end
$var wire 1 U" Y $end
$upscope $end
$scope module _532_ $end
$var wire 1 U" A $end
$var wire 1 w# B $end
$var wire 1 >% Y $end
$upscope $end
$scope module _533_ $end
$var wire 1 b" A $end
$var wire 1 ~# B $end
$var wire 1 T" Y $end
$upscope $end
$scope module _534_ $end
$var wire 1 ?% A $end
$var wire 1 S" Y $end
$upscope $end
$scope module _535_ $end
$var wire 1 _" A $end
$var wire 1 S" B $end
$var wire 1 R" Y $end
$upscope $end
$scope module _536_ $end
$var wire 1 R" A $end
$var wire 1 T" B $end
$var wire 1 Q" Y $end
$upscope $end
$scope module _537_ $end
$var wire 1 Q" A $end
$var wire 1 w# B $end
$var wire 1 @% Y $end
$upscope $end
$scope module _538_ $end
$var wire 1 b" A $end
$var wire 1 z# B $end
$var wire 1 P" Y $end
$upscope $end
$scope module _539_ $end
$var wire 1 A% A $end
$var wire 1 O" Y $end
$upscope $end
$scope module _540_ $end
$var wire 1 _" A $end
$var wire 1 O" B $end
$var wire 1 N" Y $end
$upscope $end
$scope module _541_ $end
$var wire 1 N" A $end
$var wire 1 P" B $end
$var wire 1 M" Y $end
$upscope $end
$scope module _542_ $end
$var wire 1 M" A $end
$var wire 1 w# B $end
$var wire 1 B% Y $end
$upscope $end
$scope module _543_ $end
$var wire 1 1# A $end
$var wire 1 H# B $end
$var wire 1 L" Y $end
$upscope $end
$scope module _544_ $end
$var wire 1 L" A $end
$var wire 1 ,$ B $end
$var wire 1 K" Y $end
$upscope $end
$scope module _545_ $end
$var wire 1 C% A $end
$var wire 1 J" Y $end
$upscope $end
$scope module _546_ $end
$var wire 1 L" A $end
$var wire 1 I" Y $end
$upscope $end
$scope module _547_ $end
$var wire 1 I" A $end
$var wire 1 J" B $end
$var wire 1 H" Y $end
$upscope $end
$scope module _548_ $end
$var wire 1 H" A $end
$var wire 1 K" B $end
$var wire 1 G" Y $end
$upscope $end
$scope module _549_ $end
$var wire 1 G" A $end
$var wire 1 w# B $end
$var wire 1 D% Y $end
$upscope $end
$scope module _550_ $end
$var wire 1 L" A $end
$var wire 1 ($ B $end
$var wire 1 F" Y $end
$upscope $end
$scope module _551_ $end
$var wire 1 E% A $end
$var wire 1 E" Y $end
$upscope $end
$scope module _552_ $end
$var wire 1 I" A $end
$var wire 1 E" B $end
$var wire 1 D" Y $end
$upscope $end
$scope module _553_ $end
$var wire 1 D" A $end
$var wire 1 F" B $end
$var wire 1 C" Y $end
$upscope $end
$scope module _554_ $end
$var wire 1 C" A $end
$var wire 1 w# B $end
$var wire 1 F% Y $end
$upscope $end
$scope module _555_ $end
$var wire 1 L" A $end
$var wire 1 $$ B $end
$var wire 1 B" Y $end
$upscope $end
$scope module _556_ $end
$var wire 1 G% A $end
$var wire 1 A" Y $end
$upscope $end
$scope module _557_ $end
$var wire 1 I" A $end
$var wire 1 A" B $end
$var wire 1 @" Y $end
$upscope $end
$scope module _558_ $end
$var wire 1 @" A $end
$var wire 1 B" B $end
$var wire 1 ?" Y $end
$upscope $end
$scope module _559_ $end
$var wire 1 ?" A $end
$var wire 1 w# B $end
$var wire 1 H% Y $end
$upscope $end
$scope module _560_ $end
$var wire 1 L" A $end
$var wire 1 ~# B $end
$var wire 1 >" Y $end
$upscope $end
$scope module _561_ $end
$var wire 1 I% A $end
$var wire 1 =" Y $end
$upscope $end
$scope module _562_ $end
$var wire 1 I" A $end
$var wire 1 =" B $end
$var wire 1 <" Y $end
$upscope $end
$scope module _563_ $end
$var wire 1 <" A $end
$var wire 1 >" B $end
$var wire 1 ;" Y $end
$upscope $end
$scope module _564_ $end
$var wire 1 ;" A $end
$var wire 1 w# B $end
$var wire 1 J% Y $end
$upscope $end
$scope module _565_ $end
$var wire 1 L" A $end
$var wire 1 z# B $end
$var wire 1 :" Y $end
$upscope $end
$scope module _566_ $end
$var wire 1 K% A $end
$var wire 1 9" Y $end
$upscope $end
$scope module _567_ $end
$var wire 1 I" A $end
$var wire 1 9" B $end
$var wire 1 8" Y $end
$upscope $end
$scope module _568_ $end
$var wire 1 8" A $end
$var wire 1 :" B $end
$var wire 1 7" Y $end
$upscope $end
$scope module _569_ $end
$var wire 1 7" A $end
$var wire 1 w# B $end
$var wire 1 L% Y $end
$upscope $end
$scope module _570_ $end
$var wire 1 6" Y $end
$var wire 1 & B $end
$var wire 1 ) A $end
$upscope $end
$scope module _571_ $end
$var wire 1 M% A $end
$var wire 1 5" Y $end
$upscope $end
$scope module _572_ $end
$var wire 1 5" A $end
$var wire 1 N% B $end
$var wire 1 4" Y $end
$upscope $end
$scope module _573_ $end
$var wire 1 4" A $end
$var wire 1 O% B $end
$var wire 1 3" Y $end
$upscope $end
$scope module _574_ $end
$var wire 1 3" A $end
$var wire 1 s# B $end
$var wire 1 2" Y $end
$upscope $end
$scope module _575_ $end
$var wire 1 P% A $end
$var wire 1 1" Y $end
$upscope $end
$scope module _576_ $end
$var wire 1 Q% A $end
$var wire 1 0" Y $end
$upscope $end
$scope module _577_ $end
$var wire 1 5" A $end
$var wire 1 0" B $end
$var wire 1 /" Y $end
$upscope $end
$scope module _578_ $end
$var wire 1 /" A $end
$var wire 1 R% B $end
$var wire 1 ." Y $end
$upscope $end
$scope module _579_ $end
$var wire 1 ." A $end
$var wire 1 1" B $end
$var wire 1 -" Y $end
$upscope $end
$scope module _580_ $end
$var wire 1 -" A $end
$var wire 1 2" B $end
$var wire 1 ," Y $end
$upscope $end
$scope module _581_ $end
$var wire 1 S% A $end
$var wire 1 +" Y $end
$upscope $end
$scope module _582_ $end
$var wire 1 /" A $end
$var wire 1 +" B $end
$var wire 1 *" Y $end
$upscope $end
$scope module _583_ $end
$var wire 1 *" A $end
$var wire 1 .# B $end
$var wire 1 )" Y $end
$upscope $end
$scope module _584_ $end
$var wire 1 T% A $end
$var wire 1 U% B $end
$var wire 1 (" Y $end
$upscope $end
$scope module _585_ $end
$var wire 1 (" A $end
$var wire 1 V% B $end
$var wire 1 '" Y $end
$upscope $end
$scope module _586_ $end
$var wire 1 '" A $end
$var wire 1 E# B $end
$var wire 1 &" Y $end
$upscope $end
$scope module _587_ $end
$var wire 1 &" A $end
$var wire 1 )" B $end
$var wire 1 %" Y $end
$upscope $end
$scope module _588_ $end
$var wire 1 %" A $end
$var wire 1 ," B $end
$var wire 1 $" Y $end
$upscope $end
$scope module _589_ $end
$var wire 1 4" A $end
$var wire 1 +" B $end
$var wire 1 #" Y $end
$upscope $end
$scope module _590_ $end
$var wire 1 #" A $end
$var wire 1 v" B $end
$var wire 1 "" Y $end
$upscope $end
$scope module _591_ $end
$var wire 1 (" A $end
$var wire 1 +" B $end
$var wire 1 !" Y $end
$upscope $end
$scope module _592_ $end
$var wire 1 !" A $end
$var wire 1 J" B $end
$var wire 1 ~ Y $end
$upscope $end
$scope module _593_ $end
$var wire 1 ~ A $end
$var wire 1 "" B $end
$var wire 1 } Y $end
$upscope $end
$scope module _594_ $end
$var wire 1 W% A $end
$var wire 1 0" B $end
$var wire 1 | Y $end
$upscope $end
$scope module _595_ $end
$var wire 1 | A $end
$var wire 1 X% B $end
$var wire 1 { Y $end
$upscope $end
$scope module _596_ $end
$var wire 1 { A $end
$var wire 1 \# B $end
$var wire 1 z Y $end
$upscope $end
$scope module _597_ $end
$var wire 1 | A $end
$var wire 1 +" B $end
$var wire 1 y Y $end
$upscope $end
$scope module _598_ $end
$var wire 1 y A $end
$var wire 1 `" B $end
$var wire 1 x Y $end
$upscope $end
$scope module _599_ $end
$var wire 1 x A $end
$var wire 1 z B $end
$var wire 1 w Y $end
$upscope $end
$scope module _600_ $end
$var wire 1 w A $end
$var wire 1 } B $end
$var wire 1 v Y $end
$upscope $end
$scope module _601_ $end
$var wire 1 v A $end
$var wire 1 $" B $end
$var wire 1 u Y $end
$upscope $end
$scope module _602_ $end
$var wire 1 u A $end
$var wire 1 6" B $end
$var wire 1 Y% Y $end
$upscope $end
$scope module _603_ $end
$var wire 1 #" A $end
$var wire 1 q" B $end
$var wire 1 t Y $end
$upscope $end
$scope module _604_ $end
$var wire 1 '" A $end
$var wire 1 @# B $end
$var wire 1 s Y $end
$upscope $end
$scope module _605_ $end
$var wire 1 s A $end
$var wire 1 t B $end
$var wire 1 r Y $end
$upscope $end
$scope module _606_ $end
$var wire 1 { A $end
$var wire 1 W# B $end
$var wire 1 q Y $end
$upscope $end
$scope module _607_ $end
$var wire 1 *" A $end
$var wire 1 )# B $end
$var wire 1 p Y $end
$upscope $end
$scope module _608_ $end
$var wire 1 p A $end
$var wire 1 q B $end
$var wire 1 o Y $end
$upscope $end
$scope module _609_ $end
$var wire 1 o A $end
$var wire 1 r B $end
$var wire 1 n Y $end
$upscope $end
$scope module _610_ $end
$var wire 1 Z% A $end
$var wire 1 m Y $end
$upscope $end
$scope module _611_ $end
$var wire 1 ." A $end
$var wire 1 m B $end
$var wire 1 l Y $end
$upscope $end
$scope module _612_ $end
$var wire 1 3" A $end
$var wire 1 n# B $end
$var wire 1 k Y $end
$upscope $end
$scope module _613_ $end
$var wire 1 k A $end
$var wire 1 l B $end
$var wire 1 j Y $end
$upscope $end
$scope module _614_ $end
$var wire 1 y A $end
$var wire 1 [" B $end
$var wire 1 i Y $end
$upscope $end
$scope module _615_ $end
$var wire 1 !" A $end
$var wire 1 E" B $end
$var wire 1 h Y $end
$upscope $end
$scope module _616_ $end
$var wire 1 h A $end
$var wire 1 i B $end
$var wire 1 g Y $end
$upscope $end
$scope module _617_ $end
$var wire 1 g A $end
$var wire 1 j B $end
$var wire 1 f Y $end
$upscope $end
$scope module _618_ $end
$var wire 1 f A $end
$var wire 1 n B $end
$var wire 1 e Y $end
$upscope $end
$scope module _619_ $end
$var wire 1 e A $end
$var wire 1 6" B $end
$var wire 1 [% Y $end
$upscope $end
$scope module _620_ $end
$var wire 1 #" A $end
$var wire 1 m" B $end
$var wire 1 d Y $end
$upscope $end
$scope module _621_ $end
$var wire 1 '" A $end
$var wire 1 <# B $end
$var wire 1 c Y $end
$upscope $end
$scope module _622_ $end
$var wire 1 \% D $end
$var wire 1 + C $end
$var reg 1 ]% Q $end
$upscope $end
$scope module _623_ $end
$var wire 1 ^% D $end
$var wire 1 + C $end
$var reg 1 _% Q $end
$upscope $end
$scope module _624_ $end
$var wire 1 `% D $end
$var wire 1 + C $end
$var reg 1 a% Q $end
$upscope $end
$scope module _625_ $end
$var wire 1 b% D $end
$var wire 1 + C $end
$var reg 1 c% Q $end
$upscope $end
$scope module _626_ $end
$var wire 1 d% D $end
$var wire 1 + C $end
$var reg 1 e% Q $end
$upscope $end
$scope module _627_ $end
$var wire 1 f% D $end
$var wire 1 + C $end
$var reg 1 g% Q $end
$upscope $end
$scope module _628_ $end
$var wire 1 h% D $end
$var wire 1 + C $end
$var reg 1 i% Q $end
$upscope $end
$scope module _629_ $end
$var wire 1 j% D $end
$var wire 1 + C $end
$var reg 1 k% Q $end
$upscope $end
$scope module _630_ $end
$var wire 1 l% D $end
$var wire 1 + C $end
$var reg 1 m% Q $end
$upscope $end
$scope module _631_ $end
$var wire 1 n% D $end
$var wire 1 + C $end
$var reg 1 o% Q $end
$upscope $end
$scope module _632_ $end
$var wire 1 p% D $end
$var wire 1 + C $end
$var reg 1 q% Q $end
$upscope $end
$scope module _633_ $end
$var wire 1 r% D $end
$var wire 1 + C $end
$var reg 1 s% Q $end
$upscope $end
$scope module _634_ $end
$var wire 1 t% D $end
$var wire 1 + C $end
$var reg 1 u% Q $end
$upscope $end
$scope module _635_ $end
$var wire 1 v% D $end
$var wire 1 + C $end
$var reg 1 w% Q $end
$upscope $end
$scope module _636_ $end
$var wire 1 x% D $end
$var wire 1 + C $end
$var reg 1 y% Q $end
$upscope $end
$scope module _637_ $end
$var wire 1 z% D $end
$var wire 1 + C $end
$var reg 1 {% Q $end
$upscope $end
$scope module _638_ $end
$var wire 1 |% D $end
$var wire 1 + C $end
$var reg 1 }% Q $end
$upscope $end
$scope module _639_ $end
$var wire 1 ~% D $end
$var wire 1 + C $end
$var reg 1 !& Q $end
$upscope $end
$scope module _640_ $end
$var wire 1 "& D $end
$var wire 1 + C $end
$var reg 1 #& Q $end
$upscope $end
$scope module _641_ $end
$var wire 1 $& D $end
$var wire 1 + C $end
$var reg 1 %& Q $end
$upscope $end
$scope module _642_ $end
$var wire 1 && D $end
$var wire 1 + C $end
$var reg 1 '& Q $end
$upscope $end
$scope module _643_ $end
$var wire 1 (& D $end
$var wire 1 + C $end
$var reg 1 )& Q $end
$upscope $end
$scope module _644_ $end
$var wire 1 *& D $end
$var wire 1 + C $end
$var reg 1 +& Q $end
$upscope $end
$scope module _645_ $end
$var wire 1 ,& D $end
$var wire 1 + C $end
$var reg 1 -& Q $end
$upscope $end
$scope module _646_ $end
$var wire 1 .& D $end
$var wire 1 + C $end
$var reg 1 /& Q $end
$upscope $end
$scope module _647_ $end
$var wire 1 0& D $end
$var wire 1 + C $end
$var reg 1 1& Q $end
$upscope $end
$scope module _648_ $end
$var wire 1 2& D $end
$var wire 1 + C $end
$var reg 1 3& Q $end
$upscope $end
$scope module _649_ $end
$var wire 1 4& D $end
$var wire 1 + C $end
$var reg 1 5& Q $end
$upscope $end
$scope module _650_ $end
$var wire 1 6& D $end
$var wire 1 + C $end
$var reg 1 7& Q $end
$upscope $end
$scope module _651_ $end
$var wire 1 8& D $end
$var wire 1 + C $end
$var reg 1 9& Q $end
$upscope $end
$scope module _652_ $end
$var wire 1 :& D $end
$var wire 1 + C $end
$var reg 1 ;& Q $end
$upscope $end
$scope module _653_ $end
$var wire 1 <& D $end
$var wire 1 + C $end
$var reg 1 =& Q $end
$upscope $end
$scope module _654_ $end
$var wire 1 >& D $end
$var wire 1 + C $end
$var reg 1 ?& Q $end
$upscope $end
$scope module _655_ $end
$var wire 1 @& D $end
$var wire 1 + C $end
$var reg 1 A& Q $end
$upscope $end
$scope module _656_ $end
$var wire 1 B& D $end
$var wire 1 + C $end
$var reg 1 C& Q $end
$upscope $end
$scope module _657_ $end
$var wire 1 D& D $end
$var wire 1 + C $end
$var reg 1 E& Q $end
$upscope $end
$scope module _658_ $end
$var wire 1 F& D $end
$var wire 1 + C $end
$var reg 1 G& Q $end
$upscope $end
$scope module _659_ $end
$var wire 1 H& D $end
$var wire 1 + C $end
$var reg 1 I& Q $end
$upscope $end
$scope module _660_ $end
$var wire 1 J& D $end
$var wire 1 + C $end
$var reg 1 K& Q $end
$upscope $end
$scope module _661_ $end
$var wire 1 L& D $end
$var wire 1 + C $end
$var reg 1 M& Q $end
$upscope $end
$scope module _662_ $end
$var wire 1 N& D $end
$var wire 1 + C $end
$var reg 1 O& Q $end
$upscope $end
$scope module _663_ $end
$var wire 1 P& D $end
$var wire 1 + C $end
$var reg 1 Q& Q $end
$upscope $end
$scope module _664_ $end
$var wire 1 R& D $end
$var wire 1 + C $end
$var reg 1 S& Q $end
$upscope $end
$scope module _665_ $end
$var wire 1 T& D $end
$var wire 1 + C $end
$var reg 1 U& Q $end
$upscope $end
$scope module _666_ $end
$var wire 1 V& D $end
$var wire 1 + C $end
$var reg 1 W& Q $end
$upscope $end
$upscope $end
$scope module pb $end
$var wire 5 X& read_data_cond [4:0] $end
$var wire 5 Y& read_data_est [4:0] $end
$var reg 1 + clk $end
$var reg 1 ) memread $end
$var reg 1 $ memwrite $end
$var reg 4 Z& rd_dir [3:0] $end
$var reg 1 & reset_L $end
$var reg 4 [& wr_dir [3:0] $end
$var reg 5 \& write_data [4:0] $end
$var integer 32 ]& i [31:0] $end
$var integer 32 ^& j [31:0] $end
$var integer 32 _& k [31:0] $end
$upscope $end
$upscope $end
$scope module DFFSR $end
$var wire 1 `& C $end
$var wire 1 a& D $end
$var wire 1 b& R $end
$var wire 1 c& S $end
$var reg 1 d& Q $end
$upscope $end
$enddefinitions $end
#0
$dumpvars
xd&
zc&
zb&
za&
z`&
bx _&
bx ^&
bx ]&
b0 \&
b0 [&
b0 Z&
bx Y&
bx X&
xW&
0V&
xU&
0T&
xS&
0R&
xQ&
0P&
xO&
0N&
xM&
0L&
xK&
0J&
xI&
0H&
xG&
0F&
xE&
0D&
xC&
0B&
xA&
0@&
x?&
0>&
x=&
0<&
x;&
0:&
x9&
08&
x7&
06&
x5&
04&
x3&
02&
x1&
00&
x/&
0.&
x-&
0,&
x+&
0*&
x)&
0(&
x'&
0&&
x%&
0$&
x#&
0"&
x!&
0~%
x}%
0|%
x{%
0z%
xy%
0x%
xw%
0v%
xu%
0t%
xs%
0r%
xq%
0p%
xo%
0n%
xm%
0l%
xk%
0j%
xi%
0h%
xg%
0f%
xe%
0d%
xc%
0b%
xa%
0`%
x_%
0^%
x]%
0\%
0[%
xZ%
0Y%
0X%
0W%
0V%
0U%
0T%
0S%
0R%
0Q%
xP%
0O%
0N%
0M%
0L%
xK%
0J%
xI%
0H%
xG%
0F%
xE%
0D%
xC%
0B%
xA%
0@%
x?%
0>%
x=%
0<%
x;%
0:%
x9%
08%
x7%
06%
x5%
04%
x3%
02%
x1%
00%
x/%
0.%
x-%
0,%
x+%
0*%
x)%
0(%
x'%
0&%
x%%
0$%
0#%
x"%
0!%
x~$
0}$
x|$
0{$
xz$
0y$
xx$
0w$
0v$
0u$
xt$
0s$
xr$
0q$
xp$
0o$
xn$
0m$
xl$
0k$
0j$
xi$
0h$
xg$
0f$
xe$
0d$
xc$
0b$
xa$
0`$
0_$
0^$
x]$
0\$
0[$
xZ$
0Y$
0X$
xW$
0V$
0U$
xT$
0S$
0R$
xQ$
0P$
0O$
0N$
0M$
xL$
0K$
xJ$
0I$
xH$
bx G$
bx F$
bx E$
bx D$
bx C$
bx B$
bx A$
bx @$
b0 ?$
b0 >$
b0 =$
b0 <$
b0 ;$
b0 :$
b0 9$
b0 8$
b0 7$
16$
15$
04$
13$
12$
11$
00$
1/$
0.$
x-$
1,$
1+$
1*$
x)$
1($
1'$
1&$
x%$
1$$
1#$
1"$
x!$
1~#
1}#
1|#
x{#
1z#
1y#
1x#
1w#
0v#
1u#
0t#
xs#
0r#
xq#
xp#
0o#
xn#
xm#
xl#
0k#
xj#
xi#
xh#
0g#
xf#
xe#
xd#
0c#
xb#
xa#
x`#
0_#
1^#
0]#
x\#
0[#
xZ#
xY#
0X#
xW#
xV#
xU#
0T#
xS#
xR#
xQ#
0P#
xO#
xN#
xM#
0L#
xK#
xJ#
xI#
1H#
1G#
0F#
xE#
0D#
xC#
xB#
0A#
x@#
x?#
x>#
0=#
x<#
x;#
x:#
09#
x8#
x7#
x6#
05#
x4#
x3#
x2#
01#
10#
0/#
x.#
0-#
x,#
x+#
0*#
x)#
x(#
x'#
0&#
x%#
x$#
x##
0"#
x!#
x~"
x}"
0|"
x{"
xz"
xy"
1x"
0w"
xv"
0u"
xt"
xs"
0r"
xq"
xp"
xo"
0n"
xm"
xl"
xk"
0j"
xi"
xh"
xg"
0f"
xe"
xd"
xc"
1b"
0a"
x`"
0_"
x^"
x]"
0\"
x["
xZ"
xY"
0X"
xW"
xV"
xU"
0T"
xS"
xR"
xQ"
0P"
xO"
xN"
xM"
1L"
0K"
xJ"
0I"
xH"
xG"
0F"
xE"
xD"
xC"
0B"
xA"
x@"
x?"
0>"
x="
x<"
x;"
0:"
x9"
x8"
x7"
16"
15"
04"
13"
02"
x1"
10"
0/"
1."
0-"
1,"
1+"
1*"
0)"
1("
1'"
0&"
1%"
0$"
1#"
0""
0!"
x~
x}
0|
1{
0z
1y
0x
1w
xv
xu
0t
0s
1r
0q
0p
1o
0n
xm
0l
0k
1j
0i
xh
xg
xf
xe
0d
0c
1b
0a
x`
x_
x^
0]
0\
1[
0Z
xY
0X
1W
0V
xU
0T
xS
0R
1Q
0P
0O
1N
0M
0L
0K
1J
0I
xH
xG
xF
xE
0D
xC
0B
1A
0@
0?
1>
0=
0<
x;
x:
09
08
17
x6
x5
b0 4
bx 3
b0 2
b0 1
bx 0
bx /
b0 .
b0 -
b0 ,
0+
b0 *
0)
bx (
bx '
0&
b0 %
0$
b0 #
z"
z!
$end
#10
1u
1e
1U
1E
15
0v
0f
0^
0F
06
1G"
1}
1C"
1g
1?"
1_
1;"
1G
17"
1:
1]"
1Y"
1U"
1Q"
1M"
1s"
1o"
1k"
1g"
1c"
1+#
1'#
1##
1}"
1y"
1B#
1>#
1:#
16#
12#
1Y#
1U#
1Q#
1M#
1I#
1p#
1l#
1h#
1d#
1`#
0V&
0T&
0R&
0P&
0N&
0H"
0~
0D"
0h
0@"
0`
0<"
0H
08"
0;
0^"
0Z"
0V"
0R"
0N"
0t"
0p"
0l"
0h"
0d"
0,#
0(#
0$#
0~"
0z"
0C#
0?#
0;#
07#
03#
0Z#
0V#
0R#
0N#
0J#
0q#
0m#
0i#
0e#
0a#
0D&
0F&
0H&
0J&
0L&
0:&
0<&
0>&
0@&
0B&
00&
02&
04&
06&
08&
0&&
0(&
0*&
0,&
0.&
0z%
0|%
0~%
0"&
0$&
0p%
0r%
0t%
0v%
0x%
0f%
0h%
0j%
0l%
0n%
0_$
0\$
0Y$
0V$
b0 8$
0S$
1-$
1)$
1%$
1!$
1{#
0b$
0d$
0f$
0h$
b0 9$
0j$
0m$
0o$
0q$
0s$
b0 :$
0u$
0y$
0{$
0}$
0!%
b0 ;$
0#%
0&%
0(%
0*%
0,%
b0 <$
0.%
00%
02%
04%
06%
b0 =$
08%
0:%
0<%
0>%
0@%
b0 >$
0B%
0D%
0F%
0H%
0J%
b0 ?$
0L%
1J"
1E"
1A"
1="
19"
1`"
1["
1W"
1S"
1O"
1v"
1q"
1m"
1i"
1e"
1.#
1)#
1%#
1!#
1{"
1E#
1@#
1<#
18#
14#
1\#
1W#
1S#
1O#
1K#
1s#
1n#
1j#
1f#
1b#
11"
1m
1Y
1S
1C
0x#
0|#
0"$
0&$
0*$
0C%
0E%
0G%
0I%
0K%
09%
0;%
0=%
0?%
0A%
0/%
01%
03%
05%
07%
0%%
0'%
0)%
0+%
0-%
0x$
0z$
0|$
0~$
0"%
0l$
0n$
0p$
0r$
0t$
0a$
0c$
0e$
0g$
0i$
0P%
0Q$
0Z%
0T$
0W$
0H$
0Z$
0J$
0]$
0L$
0w#
b0 (
b0 /
b0 X&
0]%
0_%
0a%
0c%
b0 '
b0 3
b0 Y&
0e%
0g%
0i%
0k%
0m%
b0 G$
0o%
0q%
0s%
0u%
0w%
b0 F$
0y%
0{%
0}%
0!&
0#&
b0 E$
0%&
0'&
0)&
0+&
0-&
b0 D$
0/&
01&
03&
05&
07&
b0 C$
09&
0;&
0=&
0?&
0A&
b0 B$
0C&
0E&
0G&
0I&
0K&
b0 A$
0M&
0O&
0Q&
0S&
0U&
b0 @$
0W&
1&
b1000 0
b0 ]&
1+
#20
0+
#30
1f%
1n%
1D%
b10001 ?$
1L%
0G"
07"
1K"
1:"
1I"
0L"
11#
0z#
0,$
1^$
1R$
01$
b10001 #
b10001 ,
b10001 1
b10001 \&
1$
b1 ]&
1+
#40
0+
#50
1p%
1v%
1:%
b1001 >$
1@%
0u
05
0]"
0Q"
1n%
0l%
1v
16
1L%
b10001 ?$
0J%
1H"
18"
1a"
1T"
0K"
1_"
0}
0:
07"
1;"
0I"
0b"
1L"
1~
1;
0:"
0>"
1_#
0H#
0J"
09"
1z#
0~#
06$
1C%
1K%
0^$
1[$
1w$
1`$
1N$
1g%
b10001 G$
1o%
b1001 #
b1001 ,
b1001 1
b1001 \&
b1 %
b1 -
b1 2
b1 [&
b10 ]&
1+
#60
0+
#70
1z%
1|%
10%
b11 =$
12%
1v%
0r%
0s"
0o"
1@%
b1001 >$
0<%
1^"
1R"
0a"
1w"
1r"
0Q"
1Y"
0_"
1u"
1b"
0x"
0T"
0\"
0_#
1v#
1~#
0($
05$
16$
0S"
0`"
0[$
1U$
0w$
1v$
1k$
0`$
1O$
0N$
1?%
19%
b11 #
b11 ,
b11 1
b11 \&
b10 %
b10 -
b10 2
b10 [&
1w%
b1001 F$
1q%
b11 ]&
1+
#80
0+
#90
1&&
1*&
1&%
b101 <$
1*%
0+#
0##
0~%
1|%
04%
b11 =$
12%
1t"
1p"
1/#
1&#
0w"
1-#
1k"
0o"
0u"
00#
1x"
03$
0n"
0r"
14$
0v#
0v"
0q"
0$$
1($
06$
1/%
11%
1X$
0U$
1w$
1`$
1N$
1{%
b11 E$
1}%
b101 #
b101 ,
b101 1
b101 \&
b11 %
b11 -
b11 2
b11 [&
b100 ]&
1+
#100
0+
#110
16&
b1000 ;$
1!%
0,&
1*&
1&&
06#
0,%
1*%
b101 <$
1&%
1,#
1$#
19#
1}"
0##
0+#
0-#
1D#
10#
0G#
0/$
13$
0"#
0&#
0/#
10$
04$
01#
1H#
0~#
1$$
1,$
02$
15$
16$
0%#
0.#
1[$
0X$
0R$
1$%
0w$
0v$
0k$
0`$
1P$
0O$
0N$
1)%
1%%
b1000 #
b1000 ,
b1000 1
b1000 \&
b100 %
b100 -
b100 2
b100 [&
1+&
b101 D$
1'&
b101 ]&
1+
#120
0+
#130
1:&
1<&
1B&
1m$
1o$
b10011 :$
1u$
0Y#
0U#
0I#
08&
16&
02&
00&
0#%
1!%
0{$
b1000 ;$
0y$
17#
1]#
1X#
1L#
1[#
12#
06#
1>#
1B#
0D#
0^#
1G#
05#
09#
0A#
0F#
1_#
0H#
08#
0z#
1~#
0($
0,$
06$
1~$
1^$
0[$
1U$
1R$
1w$
1`$
1N$
b1000 C$
17&
b10011 #
b10011 ,
b10011 1
b10011 \&
b101 %
b101 -
b101 2
b101 [&
b110 ]&
1+
#140
0+
#150
1B&
1H&
1L&
1u$
1f$
b10100 9$
1j$
0>&
1<&
1:&
0I#
0h#
0`#
0q$
1o$
b10011 :$
1m$
1Z#
1V#
1J#
0L#
1k#
1c#
1Q#
0U#
0Y#
0[#
1r#
1^#
0u#
0T#
0X#
0]#
0_#
1v#
0$$
1($
1,$
05$
16$
0K#
0W#
0\#
1X$
0U$
0R$
0w$
1v$
1k$
0`$
1O$
0N$
1t$
1n$
1l$
b10100 #
b10100 ,
b10100 1
b10100 \&
b110 %
b110 -
b110 2
b110 [&
1C&
1=&
b10011 B$
1;&
b111 ]&
1+
#160
0+
#170
1H&
1L&
1N&
0P&
1R&
1T&
1V&
1f$
1j$
1S$
0V$
1&$
1Y$
1\$
b11101 8$
1_$
0J&
0D&
0h#
0`#
0-$
0)$
0'$
0%$
0!$
0{#
0h$
b10100 9$
0b$
1i#
1a#
0k#
0c#
1.$
1d#
1p#
0r#
1u#
03$
0g#
0t#
14$
0v#
0j#
0b#
0~#
0,$
06$
1e$
1i$
1[$
1R$
1w$
1`$
1N$
1I&
b10100 A$
1M&
b11101 #
b11101 ,
b11101 1
b11101 \&
b111 %
b111 -
b111 2
b111 [&
b1000 ]&
1+
#180
0+
#190
0&$
1T&
1N&
1V&
1R&
1)$
1'$
1\$
1S$
1_$
b11101 8$
1Y$
0.$
0|#
0*$
0x#
0"$
13$
1/$
1}#
1+$
1y#
1#$
04$
00$
1H#
1~#
1,$
1z#
1$$
12$
15$
16$
0C
0S
0Y
01"
11$
0[$
0R$
0^$
0X$
0$%
0w$
0v$
0k$
0`$
0P$
0O$
0N$
1]$
1L$
1Z$
1J$
1W$
1H$
1P%
1Q$
0$
b0 #
b0 ,
b0 1
b0 \&
b1000 %
b1000 -
b1000 2
b1000 [&
1W&
1U&
1S&
b11101 @$
1O&
b0 ^&
b1001 ]&
1+
#200
0+
#210
1\%
1d%
1Y%
b10001 7$
1M$
06"
1)
b1 ^&
1+
#220
0+
#230
1b%
0d%
1K$
b1001 7$
0M$
0E
15
1F
06
0w
0J
1}
1:
1x
1K
0~
0;
0y
1!"
1|
0("
00"
1U%
1Q%
1N%
b1 *
b1 .
b1 4
b1 Z&
1e%
b10001 '
b10001 3
b10001 Y&
1]%
b10001 (
b10001 /
b10001 X&
b10 ^&
1+
#240
0+
#250
0b%
1^%
0K$
b11 7$
1[%
1E
0e
0F
1n
1w
1J
0}
0r
0x
0K
1""
1t
1y
0#"
0|
14"
10"
05"
1W%
0U%
1T%
0Q%
0N%
1M%
b1001 (
b1001 /
b1001 X&
1c%
b1001 '
b1001 3
b1001 Y&
0e%
b10 *
b10 .
b10 4
b10 Z&
b11 ^&
1+
#260
0+
#270
1`%
1I$
1\%
0^%
1Y%
b101 7$
0[%
0U
0u
1e
1$"
1V
0v
0n
0%"
0[
1}
1r
1)"
1\
0""
0t
0*"
1#"
1/"
04"
00"
1U%
1Q%
1N%
b11 *
b11 .
b11 4
b11 Z&
0c%
b11 '
b11 3
b11 Y&
1_%
b11 (
b11 /
b11 X&
b100 ^&
1+
#280
0+
#290
0\%
0`%
0Y%
0I$
0d%
1b%
1u
1U
0M$
b1000 7$
1K$
0$"
0V
15
0E
0N
0=
1M
1%"
1[
1O
1,"
1A
1Q
1W
0)"
0\
0'"
0-"
0B
0R
0X
1*"
0/"
1("
1."
0+"
10"
15"
1X%
0W%
1V%
0U%
0T%
1S%
1R%
0Q%
1O%
0N%
0M%
b101 (
b101 /
b101 X&
0_%
b101 '
b101 3
b101 Y&
1a%
b100 *
b100 .
b100 4
b100 Z&
b101 ^&
1+
#300
0+
#310
1\%
1^%
1d%
0b%
1Y%
1[%
1M$
b10011 7$
0K$
0u
0e
05
1E
1v
1n
16
0M
0w
0o
07
1N
1z
1q
19
0O
0{
1'"
1|
0("
00"
1U%
1Q%
1N%
b101 *
b101 .
b101 4
b101 Z&
1c%
0a%
b1000 '
b1000 3
b1000 Y&
0]%
b1000 (
b1000 /
b1000 X&
b110 ^&
1+
#320
0+
#330
0\%
0^%
1`%
0Y%
0[%
b10100 7$
1I$
1u
1e
0U
0v
0n
06
1=
1V
1w
1o
17
0A
0[
0z
0q
09
1D
1]
1{
03"
0|
14"
10"
05"
1W%
0U%
1T%
0Q%
0N%
1M%
b10011 (
b10011 /
b10011 X&
1]%
1_%
0c%
b10011 '
b10011 3
b10011 Y&
1e%
b110 *
b110 .
b110 4
b110 Z&
b111 ^&
1+
#340
0+
#350
1\%
1b%
1Y%
1K$
1d%
1`%
1M$
b11101 7$
1I$
0u
0E
05
0U
1$"
1M
1=
1V
0,"
0Q
0W
0A
1[
1-"
1B
1R
1X
0D
0]
0."
13"
1/"
04"
00"
1U%
1Q%
1N%
b111 *
b111 .
b111 4
b111 Z&
1a%
0_%
b10100 '
b10100 3
b10100 Y&
0]%
b10100 (
b10100 /
b10100 X&
b1000 ^&
1+
#360
0+
#370
0\%
0d%
0b%
0`%
0Y%
0M$
0K$
b0 7$
0I$
16"
b11101 (
b11101 /
b11101 X&
1]%
b11101 '
b11101 3
b11101 Y&
1c%
0)
1+
#380
0+
#390
0n%
0L%
1h%
1l%
1v
16
0u
05
1E
1U
1F%
b1011 ?$
1J%
17"
0}
0:
0$"
0=
0M
0V
0C"
0;"
1%"
1[
0H"
08"
1~
1;
1,"
1A
1Q
1W
1K"
1F"
1>"
0)"
0\
1I"
0!"
0-"
0B
0R
0X
0L"
1*"
0/"
1("
1."
11#
1+"
10"
15"
0~#
0($
0,$
0X%
0W%
0V%
0U%
0T%
0S%
0R%
0Q%
0O%
0N%
0M%
1[$
1U$
1R$
01$
b0 %
b0 -
b0 2
b0 [&
b0 *
b0 .
b0 4
b0 Z&
b1011 #
b1011 ,
b1011 1
b1011 \&
1$
0e%
0c%
0a%
b0 '
b0 3
b0 Y&
0]%
b0 (
b0 /
b0 X&
b0 _&
1+
#400
0+
#410
0p%
1^%
1b%
0:%
1x%
1[%
1K$
1l%
b11000 >$
1B%
1J%
1]"
0e
0E
15
0M"
0n%
1h%
1f%
0;"
0^"
0R"
1f
1F
06
0L%
1F%
b1011 ?$
1D%
1H"
1D"
1<"
1T"
1P"
0>"
1_"
0g
0G
1:
17"
0C"
0G"
0I"
0b"
1L"
1\%
0d%
1h
1H
0;
0:"
0F"
0K"
1_#
1Y%
b1011 7$
0M$
0H#
0E"
0="
19"
0z#
1($
1,$
06$
06"
1E%
1I%
0K%
1^$
0U$
0R$
1w$
1`$
1N$
1i%
1m%
b1011 G$
0o%
b11000 #
b11000 ,
b11000 1
b11000 \&
b1 %
b1 -
b1 2
b1 [&
1)
b1 _&
1+
#420
0+
#430
1d%
0\%
0^%
1M$
0Y%
b11000 7$
0[%
05
1u
1e
0z%
0|%
1=
1x%
00%
02%
1$&
0v
0f
1B%
b10000 =$
18%
0>
0J
1s"
1o"
1v%
1}
1g
1G
0M"
0c"
b11000 >$
1@%
1?
1K
1R"
1N"
0t"
0p"
0~
0h
0H
0P"
1f"
0Q"
0y
0_"
1u"
1!"
1b"
0x"
0T"
1|
0("
0_#
1v#
1~#
00"
05$
16$
0O"
1`"
0[$
1U%
1Q%
1N%
0w$
1v$
1k$
0`$
1O$
0N$
1A%
09%
b10000 #
b10000 ,
b10000 1
b10000 \&
b1 *
b1 .
b1 4
b1 Z&
b10 %
b10 -
b10 2
b10 [&
1y%
b11000 F$
0q%
1c%
1_%
b1011 '
b1011 3
b1011 Y&
1]%
b1011 (
b1011 /
b1011 X&
b10 _&
1+
#440
0+
#450
0b%
b10000 7$
0K$
1E
1(&
1.&
1$&
1(%
b10111 <$
1.%
0=
0F
16
18%
0'#
0y"
0~%
0|%
0z%
1>
1J
0:
0c"
0,#
0$#
04%
02%
b10000 =$
00%
1d"
1/#
1*#
1&#
1|"
0?
0K
1<
0f"
1-#
1k"
1o"
1s"
0u"
00#
1y
0#"
1x"
03$
0n"
0r"
0w"
14$
0|
14"
0v#
1v"
1q"
0e"
0$$
0($
0,$
10"
05"
06$
0/%
01%
17%
1X$
1U$
1R$
1W%
0U%
1T%
0Q%
0N%
1M%
1w$
1`$
1N$
b11000 (
b11000 /
b11000 X&
0]%
0_%
b11000 '
b11000 3
b11000 Y&
1e%
0{%
0}%
b10000 E$
1%&
b10111 #
b10111 ,
b10111 1
b10111 \&
b10 *
b10 .
b10 4
b10 Z&
b11 %
b11 -
b11 2
b11 [&
b11 _&
1+
#460
0+
#470
1\%
1^%
1`%
1Y%
1[%
1I$
1d%
b10111 7$
1M$
0u
0e
0U
05
1$"
1n
1=
1V
1(&
10&
12&
06
1(%
1y$
b1011 ;$
1{$
0%"
0o
0>
0[
1.&
0,&
1*&
1:
0'#
0B#
0>#
1.%
0,%
b10111 <$
1*%
1)"
1p
1@
1\
1,#
1(#
1$#
1z"
07#
0<
0/#
0*#
1F#
1A#
19#
0y"
1}"
0##
0*"
0-#
1D#
1#"
10#
0G#
0/$
13$
0|"
0"#
0&#
1/"
10$
04$
04"
01#
1H#
1z#
0~#
1$$
00"
02$
15$
16$
0{"
0)#
0^$
1[$
0X$
1U%
1Q%
1N%
1$%
0w$
0v$
0k$
0`$
1P$
0O$
0N$
1-%
1'%
b1011 #
b1011 ,
b1011 1
b1011 \&
b11 *
b11 .
b11 4
b11 Z&
b100 %
b100 -
b100 2
b100 [&
1/&
b10111 D$
1)&
b10000 '
b10000 3
b10000 Y&
0c%
b10000 (
b10000 /
b10000 X&
b100 _&
1+
#480
0+
#490
0d%
0`%
0M$
0I$
1^%
1[%
1b%
15
1U
0<&
b1011 7$
1K$
b10001 :$
0o$
0e
0=
0V
0E
1U#
1n
08&
16&
12&
0r
0N
1M
0Z#
0V#
0J#
0#%
1!%
b1011 ;$
1{$
0%"
1o
1>
1[
1C#
1?#
17#
1]#
1L#
1&"
1s
1O
1,"
1A
1Q
1W
0F#
1[#
12#
06#
0>#
0)"
0p
0@
0\
0D#
0^#
0'"
0-"
0B
0R
0X
1G#
05#
09#
0A#
1*"
0/"
1_#
1("
1."
0H#
0E#
0@#
0z#
1~#
1($
0+"
10"
15"
06$
1x$
1z$
1^$
0[$
0U$
1X%
0W%
1V%
0U%
0T%
1S%
1R%
0Q%
1O%
0N%
0M%
1w$
1`$
1N$
b10111 (
b10111 /
b10111 X&
1]%
1_%
b10111 '
b10111 3
b10111 Y&
1a%
11&
b1011 C$
13&
b10001 #
b10001 ,
b10001 1
b10001 \&
b100 *
b100 .
b100 4
b100 Z&
b101 %
b101 -
b101 2
b101 [&
b101 _&
1+
#500
0+
#510
1d%
0^%
0b%
1M$
0[%
b10001 7$
0K$
05
1e
1E
0H&
0L&
1v
16
0f$
0j$
1F&
1J&
0$"
0n
0M
1d$
b1010 9$
1h$
0w
07
1h#
1`#
1B&
0@&
0<&
1:&
1%"
1r
1N
0l#
0d#
1u$
0s$
0o$
b10001 :$
1m$
1z
19
1Z#
1J#
0i#
0a#
0&"
0s
0O
1o#
1g#
0I#
1M#
1U#
0Y#
0{
0[#
1r#
1'"
1^#
0u#
0L#
0P#
0X#
0]#
1|
0("
0_#
1v#
1z#
0~#
0($
1,$
00"
05$
16$
1W#
0^$
1[$
1U$
0R$
1U%
1Q%
1N%
0w$
1v$
1k$
0`$
1O$
0N$
0n$
b1010 #
b1010 ,
b1010 1
b1010 \&
b101 *
b101 .
b101 4
b101 Z&
b110 %
b110 -
b110 2
b110 [&
b10001 B$
0=&
0e%
1c%
b1011 '
b1011 3
b1011 Y&
0a%
b1011 (
b1011 /
b1011 X&
b110 _&
1+
#520
0+
#530
0\%
0d%
1^%
1b%
0Y%
0M$
1[%
b1010 7$
1K$
1u
15
0e
0E
1J&
0P&
0v
06
1f
1M
1h$
b11101 8$
0V$
1&$
0L&
0H&
1F&
0D&
1w
17
0j
0Q
0d#
0)$
0'$
0j$
0f$
1d$
b1010 9$
0b$
1m#
1e#
0z
09
1k
1T
0g#
1.$
1`#
1h#
0l#
1p#
0r#
1{
03"
1u#
03$
0c#
0k#
0o#
0t#
14$
0|
14"
0v#
0n#
1j#
0f#
1b#
0z#
0$$
1($
0,$
10"
05"
06$
1c$
0e$
1g$
0i$
1^$
1X$
0U$
1R$
1W%
0U%
1T%
0Q%
0N%
1M%
1w$
1`$
1N$
b10001 (
b10001 /
b10001 X&
0_%
0c%
b10001 '
b10001 3
b10001 Y&
1e%
1G&
0I&
1K&
b1010 A$
0M&
b11101 #
b11101 ,
b11101 1
b11101 \&
b110 *
b110 .
b110 4
b110 Z&
b111 %
b111 -
b111 2
b111 [&
b111 _&
1+
#540
0+
#550
1\%
1d%
1`%
1Y%
1M$
1I$
0^%
1b%
0[%
b11101 7$
1K$
0u
05
0U
1e
0E
1$"
1=
1V
0f
1M
0&$
0,"
0A
0W
1V&
1T&
1R&
1N&
1j
0Q
1_$
1\$
1)$
1'$
1Y$
b11101 8$
1S$
1-"
1B
1R
1X
0k
0T
0x#
0|#
0.$
0"$
0*$
0."
13"
13$
1y#
1}#
1/$
1#$
1+$
1/"
04$
00$
04"
1H#
1z#
1~#
1$$
1,$
00"
12$
15$
16$
0^$
0[$
11$
0X$
0R$
1U%
1Q%
1N%
0$%
0w$
0v$
0k$
0`$
0P$
0O$
0N$
0$
b0 #
b0 ,
b0 1
b0 \&
b111 *
b111 .
b111 4
b111 Z&
b1000 %
b1000 -
b1000 2
b1000 [&
0e%
1c%
1_%
b1010 '
b1010 3
b1010 Y&
0]%
b1010 (
b1010 /
b1010 X&
b1000 _&
1+
#560
0+
#570
0\%
0d%
0b%
0`%
0Y%
0M$
0K$
b0 7$
0I$
16"
b11101 (
b11101 /
b11101 X&
1]%
0_%
1a%
b11101 '
b11101 3
b11101 Y&
1e%
0)
1+
#580
0+
#590
0e%
0c%
0a%
b0 '
b0 3
b0 Y&
0]%
b0 (
b0 /
b0 X&
1+
#600
0+
#610
1+
